﻿VOLTS,CAPCTNC_PFRD,RESSTNC_MOHM,TEMP_DEGC,AIR_TEMP_DEGC,RH_PRCNT
0.00E+00,123,2.58E-01,2.01E+01,2.45E+01,0.00E+00
-5.00E+00,5.88,3.45E+01,2.01E+01,2.45E+01,0.00E+00
-1.00E+01,4.25,6.29E+01,2.01E+01,2.45E+01,0.00E+00
-1.50E+01,3.48,1.44E+02,2.01E+01,2.45E+01,0.00E+00
-2.00E+01,3.03,6.14E+02,2.01E+01,2.45E+01,0.00E+00
-2.50E+01,2.72,-4.84E+02,2.01E+01,2.45E+01,0.00E+00
-3.00E+01,2.50,-2.09E+02,2.01E+01,2.45E+01,0.00E+00
-3.50E+01,2.34,-1.60E+02,2.01E+01,2.45E+01,0.00E+00
-4.00E+01,2.24,-1.53E+02,2.01E+01,2.45E+01,0.00E+00
-4.50E+01,2.17,-1.81E+02,2.01E+01,2.45E+01,0.00E+00
-5.00E+01,2.14,-2.67E+02,2.01E+01,2.45E+01,0.00E+00
-5.50E+01,2.16,-4.83E+02,2.01E+01,2.45E+01,0.00E+00
-6.00E+01,2.39,-1.58E+03,2.01E+01,2.45E+01,0.00E+00
-6.50E+01,2.79,5.56E+02,2.01E+01,2.45E+01,0.00E+00
-7.00E+01,2.57,5.66E+02,2.01E+01,2.45E+01,0.00E+00
-7.50E+01,2.21,5.78E+02,2.01E+01,2.45E+01,0.00E+00
-8.00E+01,2.08,5.77E+02,2.01E+01,2.45E+01,0.00E+00
-8.50E+01,1.91,6.73E+02,2.01E+01,2.45E+01,0.00E+00
-9.00E+01,1.66,1.82E+03,2.01E+01,2.45E+01,0.00E+00
-9.50E+01,1.39,-1.09E+03,2.01E+01,2.45E+01,0.00E+00
-1.00E+02,1.32,-1.11E+03,2.01E+01,2.45E+01,0.00E+00
-1.05E+02,1.26,-1.11E+03,2.01E+01,2.45E+01,0.00E+00
-1.10E+02,1.22,-1.20E+03,2.01E+01,2.45E+01,0.00E+00
-1.15E+02,1.17,2.05E+02,2.01E+01,2.45E+01,0.00E+00
-1.20E+02,1.14,1.91E+02,2.01E+01,2.45E+01,0.00E+00
-1.25E+02,1.12,1.86E+02,2.00E+01,2.45E+01,0.00E+00
-1.30E+02,1.10,1.86E+02,2.00E+01,2.45E+01,0.00E+00
-1.35E+02,1.08,1.78E+02,2.00E+01,2.45E+01,0.00E+00
-1.40E+02,1.07,1.80E+02,2.00E+01,2.45E+01,0.00E+00
-1.45E+02,1.06,1.72E+02,2.00E+01,2.45E+01,0.00E+00
-1.50E+02,1.06,1.69E+02,2.00E+01,2.45E+01,0.00E+00
-1.55E+02,1.04,1.67E+02,2.00E+01,2.45E+01,0.00E+00
-1.60E+02,1.03,1.64E+02,2.00E+01,2.45E+01,0.00E+00
-1.65E+02,1.02,1.66E+02,2.00E+01,2.45E+01,0.00E+00
-1.70E+02,1.00,1.61E+02,2.00E+01,2.45E+01,0.00E+00
-1.75E+02,9.91E-1,1.62E+02,2.00E+01,2.45E+01,0.00E+00
-1.80E+02,9.78E-1,1.61E+02,2.00E+01,2.45E+01,0.00E+00
-1.85E+02,9.69E-1,1.60E+02,2.00E+01,2.45E+01,0.00E+00
-1.90E+02,9.56E-1,1.63E+02,2.00E+01,2.45E+01,0.00E+00
-1.95E+02,9.45E-1,1.60E+02,2.00E+01,2.45E+01,0.00E+00
-2.00E+02,9.34E-1,1.64E+02,2.00E+01,2.45E+01,0.00E+00
-2.05E+02,9.21E-1,1.62E+02,2.00E+01,2.45E+01,0.00E+00
-2.10E+02,9.12E-1,1.63E+02,2.00E+01,2.45E+01,0.00E+00
-2.15E+02,8.99E-1,1.63E+02,2.00E+01,2.45E+01,0.00E+00
-2.20E+02,8.91E-1,1.61E+02,2.00E+01,2.45E+01,0.00E+00
-2.25E+02,8.80E-1,1.64E+02,2.00E+01,2.45E+01,0.00E+00
-2.30E+02,8.71E-1,1.60E+02,2.00E+01,2.45E+01,0.00E+00
-2.35E+02,8.66E-1,1.63E+02,2.00E+01,2.45E+01,0.00E+00
-2.40E+02,8.58E-1,1.61E+02,2.00E+01,2.45E+01,0.00E+00
-2.45E+02,8.57E-1,1.61E+02,2.00E+01,2.45E+01,0.00E+00
-2.50E+02,8.53E-1,1.61E+02,2.00E+01,2.45E+01,0.00E+00
-2.55E+02,8.52E-1,1.58E+02,2.00E+01,2.45E+01,0.00E+00
-2.60E+02,8.53E-1,1.60E+02,2.00E+01,2.45E+01,0.00E+00
-2.65E+02,8.54E-1,1.57E+02,2.00E+01,2.45E+01,0.00E+00
-2.70E+02,8.55E-1,1.58E+02,2.00E+01,2.45E+01,0.00E+00
-2.75E+02,8.50E-1,1.58E+02,2.00E+01,2.45E+01,0.00E+00
-2.80E+02,8.51E-1,1.55E+02,2.00E+01,2.45E+01,0.00E+00
-2.85E+02,8.50E-1,1.58E+02,2.00E+01,2.45E+01,0.00E+00
-2.90E+02,8.50E-1,1.55E+02,2.00E+01,2.45E+01,0.00E+00
-2.95E+02,8.50E-1,1.58E+02,2.00E+01,2.45E+01,0.00E+00
-3.00E+02,8.57E-1,1.53E+02,2.00E+01,2.45E+01,0.00E+00
-3.05E+02,8.70E-1,1.50E+02,2.00E+01,2.45E+01,0.00E+00
-3.10E+02,8.58E-1,1.53E+02,2.00E+01,2.45E+01,0.00E+00
-3.15E+02,8.56E-1,1.51E+02,2.00E+01,2.45E+01,0.00E+00
-3.20E+02,8.54E-1,1.54E+02,2.00E+01,2.45E+01,0.00E+00
-3.25E+02,8.51E-1,1.51E+02,2.00E+01,2.45E+01,0.00E+00
-3.30E+02,8.51E-1,1.54E+02,2.00E+01,2.45E+01,0.00E+00
-3.35E+02,8.48E-1,1.53E+02,2.00E+01,2.45E+01,0.00E+00
-3.40E+02,8.49E-1,1.52E+02,2.00E+01,2.45E+01,0.00E+00
-3.45E+02,8.47E-1,1.54E+02,2.00E+01,2.45E+01,0.00E+00
-3.50E+02,8.47E-1,1.51E+02,2.00E+01,2.45E+01,0.00E+00
-3.55E+02,8.47E-1,1.54E+02,2.00E+01,2.45E+01,0.00E+00
-3.60E+02,8.45E-1,1.52E+02,2.00E+01,2.45E+01,0.00E+00
-3.65E+02,8.47E-1,1.53E+02,2.00E+01,2.45E+01,0.00E+00
-3.70E+02,8.43E-1,1.53E+02,2.00E+01,2.45E+01,0.00E+00
-3.75E+02,8.44E-1,1.51E+02,2.00E+01,2.45E+01,0.00E+00
-3.80E+02,8.42E-1,1.53E+02,2.00E+01,2.45E+01,0.00E+00
-3.85E+02,8.42E-1,1.51E+02,2.00E+01,2.45E+01,0.00E+00
-3.90E+02,8.43E-1,1.52E+02,2.00E+01,2.45E+01,0.00E+00
-3.95E+02,8.41E-1,1.50E+02,2.00E+01,2.45E+01,0.00E+00
-4.00E+02,8.43E-1,1.50E+02,2.00E+01,2.45E+01,0.00E+00
-4.05E+02,8.42E-1,1.51E+02,2.00E+01,2.45E+01,0.00E+00
-4.10E+02,8.43E-1,1.48E+02,2.00E+01,2.45E+01,0.00E+00
-4.15E+02,8.43E-1,1.51E+02,2.00E+01,2.45E+01,0.00E+00
-4.20E+02,8.42E-1,1.48E+02,2.00E+01,2.45E+01,0.00E+00
-4.25E+02,8.44E-1,1.50E+02,2.00E+01,2.45E+01,0.00E+00
-4.30E+02,8.42E-1,1.49E+02,2.00E+01,2.45E+01,0.00E+00
-4.35E+02,8.45E-1,1.48E+02,2.00E+01,2.45E+01,0.00E+00
-4.40E+02,8.43E-1,1.50E+02,2.00E+01,2.45E+01,0.00E+00
-4.45E+02,8.44E-1,1.47E+02,2.00E+01,2.45E+01,0.00E+00
-4.50E+02,8.45E-1,1.50E+02,2.00E+01,2.45E+01,0.00E+00
-4.55E+02,8.43E-1,1.47E+02,2.00E+01,2.45E+01,0.00E+00
-4.60E+02,8.46E-1,1.47E+02,2.00E+01,2.45E+01,0.00E+00
-4.65E+02,8.44E-1,1.49E+02,2.00E+01,2.45E+01,0.00E+00
-4.70E+02,8.45E-1,1.46E+02,2.00E+01,2.45E+01,0.00E+00
-4.75E+02,8.46E-1,1.48E+02,2.00E+01,2.45E+01,0.00E+00
-4.80E+02,8.45E-1,1.45E+02,2.00E+01,2.45E+01,0.00E+00
-4.85E+02,8.47E-1,1.47E+02,2.00E+01,2.45E+01,0.00E+00
-4.90E+02,8.45E-1,1.46E+02,2.00E+01,2.45E+01,0.00E+00
-4.95E+02,8.48E-1,1.45E+02,2.00E+01,2.45E+01,0.00E+00
-5.00E+02,8.47E-1,1.47E+02,2.00E+01,2.45E+01,0.00E+00
