﻿VOLTS,CURRNT_NAMP,TEMP_DEGC,AIR_TEMP_DEGC,RH_PRCNT
-2.87E-02,-2.00E+03,2.00E+01,2.46E+01,0.00E+00
-2.73E-02,-1.90E+03,2.00E+01,2.46E+01,0.00E+00
-2.59E-02,-1.80E+03,2.00E+01,2.46E+01,0.00E+00
-2.46E-02,-1.70E+03,2.00E+01,2.47E+01,0.00E+00
-2.32E-02,-1.60E+03,2.00E+01,2.47E+01,0.00E+00
-2.19E-02,-1.50E+03,2.00E+01,2.47E+01,0.00E+00
-2.05E-02,-1.40E+03,2.00E+01,2.46E+01,0.00E+00
-1.92E-02,-1.30E+03,2.00E+01,2.46E+01,0.00E+00
-1.77E-02,-1.20E+03,2.00E+01,2.46E+01,0.00E+00
-1.63E-02,-1.10E+03,2.00E+01,2.46E+01,0.00E+00
-1.49E-02,-1.00E+03,2.00E+01,2.46E+01,0.00E+00
-1.34E-02,-9.00E+02,2.00E+01,2.46E+01,0.00E+00
-1.19E-02,-8.00E+02,2.00E+01,2.47E+01,0.00E+00
-1.04E-02,-7.00E+02,2.00E+01,2.47E+01,0.00E+00
-8.92E-03,-6.00E+02,2.00E+01,2.47E+01,0.00E+00
-7.43E-03,-5.00E+02,2.00E+01,2.46E+01,0.00E+00
-5.94E-03,-4.00E+02,2.00E+01,2.46E+01,0.00E+00
-4.45E-03,-3.00E+02,2.00E+01,2.46E+01,0.00E+00
-2.96E-03,-2.00E+02,2.00E+01,2.47E+01,0.00E+00
-1.49E-03,-1.00E+02,2.00E+01,2.47E+01,0.00E+00
1.00E-05,0.00E+00,2.00E+01,2.46E+01,0.00E+00
1.56E-03,1.00E+02,2.00E+01,2.46E+01,0.00E+00
3.01E-03,2.00E+02,2.00E+01,2.47E+01,0.00E+00
4.51E-03,3.00E+02,2.00E+01,2.47E+01,0.00E+00
6.00E-03,4.00E+02,2.00E+01,2.47E+01,0.00E+00
7.50E-03,5.00E+02,2.00E+01,2.46E+01,0.00E+00
9.00E-03,6.00E+02,2.00E+01,2.46E+01,0.00E+00
1.05E-02,7.00E+02,2.00E+01,2.46E+01,0.00E+00
1.20E-02,8.00E+02,2.00E+01,2.47E+01,0.00E+00
1.35E-02,9.00E+02,2.00E+01,2.47E+01,0.00E+00
1.50E-02,1.00E+03,2.00E+01,2.47E+01,0.00E+00
1.65E-02,1.10E+03,2.00E+01,2.47E+01,0.00E+00
1.81E-02,1.20E+03,2.00E+01,2.47E+01,0.00E+00
1.97E-02,1.30E+03,2.00E+01,2.47E+01,0.00E+00
2.15E-02,1.40E+03,2.00E+01,2.47E+01,0.00E+00
2.33E-02,1.50E+03,2.00E+01,2.46E+01,0.00E+00
2.52E-02,1.60E+03,2.00E+01,2.46E+01,0.00E+00
2.71E-02,1.70E+03,2.00E+01,2.46E+01,0.00E+00
2.89E-02,1.80E+03,2.00E+01,2.47E+01,0.00E+00
3.08E-02,1.90E+03,2.00E+01,2.47E+01,0.00E+00
3.26E-02,2.00E+03,2.00E+01,2.47E+01,0.00E+00
