﻿VOLTS,CAPCTNC_PFRD,RESSTNC_MOHM,TEMP_DEGC,AIR_TEMP_DEGC,RH_PRCNT
0.00E+00,365,9.77E-02,2.00E+01,2.45E+01,0.00E+00
-5.00E+00,2.22E+1,5.99E+00,2.00E+01,2.45E+01,0.00E+00
-1.00E+01,1.61E+1,9.41E+00,2.00E+01,2.45E+01,0.00E+00
-1.50E+01,1.33E+1,1.49E+01,2.00E+01,2.45E+01,0.00E+00
-2.00E+01,1.16E+1,2.50E+01,2.00E+01,2.45E+01,0.00E+00
-2.50E+01,1.03E+1,4.97E+01,2.00E+01,2.45E+01,0.00E+00
-3.00E+01,9.38,2.31E+02,2.00E+01,2.45E+01,0.00E+00
-3.50E+01,8.61,-1.55E+02,2.00E+01,2.45E+01,0.00E+00
-4.00E+01,7.96,-7.56E+01,2.00E+01,2.45E+01,0.00E+00
-4.50E+01,7.40,-5.72E+01,2.00E+01,2.45E+01,0.00E+00
-5.00E+01,6.94,-5.02E+01,2.00E+01,2.45E+01,0.00E+00
-5.50E+01,6.55,-4.34E+01,2.00E+01,2.45E+01,0.00E+00
-6.00E+01,6.15,-4.76E+01,2.00E+01,2.45E+01,0.00E+00
-6.50E+01,5.97,-4.68E+01,2.00E+01,2.45E+01,0.00E+00
-7.00E+01,5.95,-4.50E+01,2.00E+01,2.45E+01,0.00E+00
-7.50E+01,5.79,-3.92E+01,2.00E+01,2.45E+01,0.00E+00
-8.00E+01,5.73,-3.03E+01,2.00E+01,2.45E+01,0.00E+00
-8.50E+01,5.65,-2.64E+01,2.00E+01,2.45E+01,0.00E+00
-9.00E+01,5.55,-2.43E+01,2.00E+01,2.45E+01,0.00E+00
-9.50E+01,5.45,-2.26E+01,2.00E+01,2.45E+01,0.00E+00
-1.00E+02,5.32,-2.10E+01,2.00E+01,2.45E+01,0.00E+00
-1.05E+02,5.14,-1.97E+01,2.00E+01,2.45E+01,0.00E+00
-1.10E+02,4.96,-1.88E+01,2.00E+01,2.45E+01,0.00E+00
-1.15E+02,4.78,-2.12E+01,2.00E+01,2.45E+01,0.00E+00
-1.20E+02,4.65,-2.18E+01,2.00E+01,2.45E+01,0.00E+00
-1.25E+02,4.55,-2.21E+01,2.00E+01,2.45E+01,0.00E+00
-1.30E+02,4.45,-2.25E+01,2.00E+01,2.45E+01,0.00E+00
-1.35E+02,4.37,-2.30E+01,2.00E+01,2.45E+01,0.00E+00
-1.40E+02,4.29,-2.33E+01,2.00E+01,2.45E+01,0.00E+00
-1.45E+02,4.20,-2.36E+01,2.00E+01,2.45E+01,0.00E+00
-1.50E+02,4.12,-2.38E+01,2.00E+01,2.45E+01,0.00E+00
-1.55E+02,4.04,-2.40E+01,2.00E+01,2.45E+01,0.00E+00
-1.60E+02,3.95,-2.44E+01,2.00E+01,2.45E+01,0.00E+00
-1.65E+02,3.86,-2.47E+01,2.00E+01,2.45E+01,0.00E+00
-1.70E+02,3.77,-2.52E+01,2.00E+01,2.45E+01,0.00E+00
-1.75E+02,3.67,-2.61E+01,2.00E+01,2.45E+01,0.00E+00
-1.80E+02,3.56,-2.72E+01,2.00E+01,2.45E+01,0.00E+00
-1.85E+02,3.44,-2.93E+01,2.00E+01,2.45E+01,0.00E+00
-1.90E+02,3.30,-3.30E+01,2.00E+01,2.45E+01,0.00E+00
-1.95E+02,3.14,-4.15E+01,2.00E+01,2.45E+01,0.00E+00
-2.00E+02,3.02,-5.50E+01,2.00E+01,2.45E+01,0.00E+00
-2.05E+02,2.94,-7.40E+01,2.00E+01,2.45E+01,0.00E+00
-2.10E+02,2.88,-9.61E+01,2.00E+01,2.45E+01,0.00E+00
-2.15E+02,2.84,-1.16E+02,2.00E+01,2.45E+01,0.00E+00
-2.20E+02,2.80,-1.37E+02,2.00E+01,2.45E+01,0.00E+00
-2.25E+02,2.76,-1.50E+02,2.00E+01,2.45E+01,0.00E+00
-2.30E+02,2.73,-1.61E+02,2.00E+01,2.45E+01,0.00E+00
-2.35E+02,2.71,-1.66E+02,2.00E+01,2.45E+01,0.00E+00
-2.40E+02,2.69,-1.68E+02,2.00E+01,2.45E+01,0.00E+00
-2.45E+02,2.68,-1.76E+02,2.00E+01,2.45E+01,0.00E+00
-2.50E+02,2.68,-1.74E+02,2.00E+01,2.45E+01,0.00E+00
-2.55E+02,2.67,-1.80E+02,2.00E+01,2.45E+01,0.00E+00
-2.60E+02,2.67,-1.80E+02,2.00E+01,2.45E+01,0.00E+00
-2.65E+02,2.66,-1.83E+02,2.00E+01,2.45E+01,0.00E+00
-2.70E+02,2.66,-1.86E+02,2.00E+01,2.45E+01,0.00E+00
-2.75E+02,2.66,-1.85E+02,2.00E+01,2.45E+01,0.00E+00
-2.80E+02,2.66,-1.93E+02,2.00E+01,2.45E+01,0.00E+00
-2.85E+02,2.65,-1.90E+02,2.00E+01,2.45E+01,0.00E+00
-2.90E+02,2.65,-1.95E+02,2.00E+01,2.45E+01,0.00E+00
-2.95E+02,2.65,-1.95E+02,2.00E+01,2.45E+01,0.00E+00
-3.00E+02,2.65,-1.95E+02,2.00E+01,2.45E+01,0.00E+00
-3.05E+02,2.65,-2.00E+02,2.00E+01,2.45E+01,0.00E+00
-3.10E+02,2.65,-1.96E+02,2.00E+01,2.45E+01,0.00E+00
-3.15E+02,2.65,-2.03E+02,2.00E+01,2.45E+01,0.00E+00
-3.20E+02,2.65,-2.00E+02,2.00E+01,2.45E+01,0.00E+00
-3.25E+02,2.65,-2.03E+02,2.00E+01,2.45E+01,0.00E+00
-3.30E+02,2.65,-2.07E+02,2.00E+01,2.45E+01,0.00E+00
-3.35E+02,2.65,-2.03E+02,2.00E+01,2.45E+01,0.00E+00
-3.40E+02,2.65,-2.11E+02,2.00E+01,2.45E+01,0.00E+00
-3.45E+02,2.65,-2.06E+02,2.00E+01,2.45E+01,0.00E+00
-3.50E+02,2.65,-2.12E+02,2.00E+01,2.45E+01,0.00E+00
-3.55E+02,2.65,-2.09E+02,2.00E+01,2.45E+01,0.00E+00
-3.60E+02,2.64,-2.09E+02,2.00E+01,2.45E+01,0.00E+00
-3.65E+02,2.64,-2.13E+02,2.00E+01,2.45E+01,0.00E+00
-3.70E+02,2.64,-2.08E+02,2.00E+01,2.45E+01,0.00E+00
-3.75E+02,2.64,-2.15E+02,2.00E+01,2.45E+01,0.00E+00
-3.80E+02,2.64,-2.10E+02,2.00E+01,2.45E+01,0.00E+00
-3.85E+02,2.64,-2.13E+02,2.00E+01,2.45E+01,0.00E+00
-3.90E+02,2.64,-2.15E+02,2.00E+01,2.45E+01,0.00E+00
-3.95E+02,2.64,-2.11E+02,2.00E+01,2.45E+01,0.00E+00
-4.00E+02,2.64,-2.18E+02,2.00E+01,2.45E+01,0.00E+00
-4.05E+02,2.64,-2.12E+02,2.00E+01,2.45E+01,0.00E+00
-4.10E+02,2.64,-2.19E+02,2.00E+01,2.45E+01,0.00E+00
-4.15E+02,2.64,-2.14E+02,2.00E+01,2.45E+01,0.00E+00
-4.20E+02,2.64,-2.15E+02,2.00E+01,2.45E+01,0.00E+00
-4.25E+02,2.64,-2.18E+02,2.00E+01,2.45E+01,0.00E+00
-4.30E+02,2.64,-2.14E+02,2.00E+01,2.45E+01,0.00E+00
-4.35E+02,2.64,-2.22E+02,2.00E+01,2.45E+01,0.00E+00
-4.40E+02,2.64,-2.18E+02,2.00E+01,2.45E+01,0.00E+00
-4.45E+02,2.63,-2.24E+02,2.00E+01,2.45E+01,0.00E+00
-4.50E+02,2.64,-2.24E+02,2.00E+01,2.45E+01,0.00E+00
-4.55E+02,2.63,-2.23E+02,2.00E+01,2.45E+01,0.00E+00
-4.60E+02,2.63,-2.31E+02,2.00E+01,2.45E+01,0.00E+00
-4.65E+02,2.63,-2.26E+02,2.00E+01,2.45E+01,0.00E+00
-4.70E+02,2.63,-2.35E+02,2.00E+01,2.45E+01,0.00E+00
-4.75E+02,2.63,-2.31E+02,2.00E+01,2.45E+01,0.00E+00
-4.80E+02,2.63,-2.34E+02,2.00E+01,2.45E+01,0.00E+00
-4.85E+02,2.63,-2.37E+02,2.00E+01,2.45E+01,0.00E+00
-4.90E+02,2.63,-2.34E+02,2.00E+01,2.45E+01,0.00E+00
-4.95E+02,2.63,-2.42E+02,2.00E+01,2.45E+01,0.00E+00
-5.00E+02,2.63,-2.37E+02,2.00E+01,2.45E+01,0.00E+00
