#Measurement file	
#project	CMS tracker
#Sensor Type	PSS
#ID	34342_016_PSS_MAINL
#Scratch PAD	|0000|0000|0000|0000|0001|0110|
#Operator	HPK
#Date	28-Sep-20
#Ingot No.	2984038-504
#Bad strips	0
#AC NG	none
#AC open	none
#AC short	none
#DC high	none
#DC low	none
#DC leaky	none
#Polysilicon Bias Resistance Upper [Mohm]	1.81 
#Polysilicon Bias Resistance Lower [Mohm]	1.60 
#Polysilicon Bias Resistance Average [Mohm]	1.70 
#Depletion voltage [V]	290
#temperature [deg]	25
#humidity [%]	50
	
voltage [V]	current [A]
0	4.545E-09
20	6.788E-08
40	7.082E-08
60	7.251E-08
80	7.246E-08
100	7.612E-08
120	7.72E-08
140	7.774E-08
160	7.851E-08
180	7.915E-08
200	7.984E-08
220	8.091E-08
240	8.234E-08
260	8.425E-08
280	8.076E-08
300	8.175E-08
320	8.25E-08
340	8.312E-08
360	8.369E-08
380	8.423E-08
400	8.473E-08
420	8.522E-08
440	8.568E-08
460	8.613E-08
480	8.657E-08
500	0.000000087
520	8.743E-08
540	8.785E-08
560	8.825E-08
580	8.866E-08
600	8.908E-08
620	8.948E-08
640	8.989E-08
660	9.031E-08
680	9.072E-08
700	9.114E-08
720	9.156E-08
740	9.199E-08
760	9.242E-08
780	9.286E-08
800	9.331E-08
820	9.377E-08
840	9.424E-08
860	9.473E-08
880	9.524E-08
900	9.576E-08
920	9.63E-08
940	9.687E-08
960	9.746E-08
980	9.808E-08
1000	9.874E-08
	
voltage [V]	capacitance [F]
0	5.32781E-08
10	9.13189E-09
20	6.0595E-09
30	4.94563E-09
40	4.26285E-09
50	3.80584E-09
60	3.47308E-09
70	3.19299E-09
80	2.98143E-09
90	2.81046E-09
100	2.66575E-09
110	2.5412E-09
120	2.43253E-09
130	2.33666E-09
140	2.25094E-09
150	2.17417E-09
160	2.10487E-09
170	2.04379E-09
180	1.98467E-09
190	1.92831E-09
200	1.87818E-09
210	1.83146E-09
220	1.78722E-09
230	1.74477E-09
240	1.70356E-09
250	1.66412E-09
260	1.62849E-09
270	1.59856E-09
280	1.57851E-09
290	1.56957E-09
300	1.56585E-09
310	1.56383E-09
320	1.5625E-09
330	1.56153E-09
340	1.56076E-09
350	1.56012E-09
360	1.55956E-09
370	1.55909E-09
380	1.55866E-09
390	1.55827E-09
400	1.55791E-09
	
#End of manufacturer data file		
