NAME_LABEL,2S_18_5_KIT-11111,Good
MANUFACTURER,KIT
LOCATION,KIT
SENSOR_TOP,SM_Sensor_top,Rotated
SENSOR_BOTTOM,SM_Sensor_bot,Not Rotated
FEH_RIGHT,FEH_KIT_1
FEH_LEFT,FEH_KIT_2
SEH,SM_SEH
VTRX+,SM_vtrx