Wafer Name:,VPCUS9H

position,ID,result
1,7001,pass
2,7002,pass
3,7003,pass
4,7004,pass
5,7005,pass
6,7006,pass
7,7007,pass
8,7008,pass
9,7009,pass
10,7010,pass
11,7011,pass
12,7012, FAIL
13,7013, FAIL
14,7014,pass
15,7015,pass
16,7016,pass
17,7017,pass
18,7018,pass
19,7019, FAIL
20,7020,pass
21,7021,pass
22,7022,pass
23,7023, FAIL
24,7024,pass
25,7025,pass
26,7026,pass
27,7027,pass
28,7028,pass
29,7029, FAIL
30,7030,pass
31,7031,pass
32,7032,pass
33,7033,pass
34,7034, FAIL
35,7035,pass
36,7036,pass
37,7037,pass
38,7038,pass
39,7039,pass
40,7040,pass
41,7041,pass
42,7042, FAIL
43,7043,pass
44,7044,pass
45,7045,pass
46,7046,pass
47,7047,pass
48,7048,pass
49,7049,pass
50,7050,pass
51,7051,pass
52,7052,pass
53,7053,pass
54,7054,pass
55,7055, FAIL
56,7056, FAIL
57,7057,pass
58,7058,pass
59,7059,pass
60,7060,pass
61,7061,pass
62,7062,pass
63,7063, FAIL
64,7064, FAIL
65,7065, FAIL
66,7066,pass
67,7067,pass
68,7068,pass
69,7069, FAIL
70,7070,pass
71,7071,pass
72,7072, FAIL
73,7073,pass
74,7074,pass
75,7075,pass
76,7076,pass
77,7077, FAIL
78,7078, FAIL
79,7079, FAIL
80,7080, FAIL
81,7081,pass
82,7082, FAIL
83,7083, FAIL
84,7084,pass
85,7085, FAIL
86,7086, FAIL
87,7087, FAIL
88,7088, FAIL
89,7089,pass
90,7090,pass
91,7091,pass
92,7092, FAIL
93,7093, FAIL
94,7094, FAIL
95,7095, FAIL
96,7096,pass
97,7097, FAIL
98,7098, FAIL
99,7099,pass
100,7100, FAIL
101,7101, FAIL
102,7102,pass
103,7103,pass
104,7104,pass
105,7105,pass
106,7106,pass
107,7107,pass
108,7108, FAIL
109,7109,pass
110,7110, FAIL
111,7111,pass
112,7112,pass
113,7113, FAIL
114,7114, FAIL
115,7115, FAIL
116,7116, FAIL
117,7117,pass
118,7118,pass
119,7119,pass
120,7120,pass
121,7121,pass
122,7122,pass
123,7123,pass
124,7124, FAIL
125,7125, FAIL
126,7126,pass
127,7127,pass
128,7128,pass
129,7129,pass
130,7130,pass
131,7131, FAIL
132,7132,pass
133,7133,pass
134,7134,pass
135,7135,pass
136,7136,pass
137,7137,pass
138,7138, FAIL
139,7139,pass
140,7140,pass
141,7141,pass
142,7142, FAIL
143,7143,pass
144,7144,pass
145,7145,pass
146,7146,pass
147,7147,pass
148,7148,pass
149,7149, FAIL
150,7150,pass
151,7151,pass
152,7152,pass
153,7153,pass
154,7154,pass
155,7155,pass
156,7156,pass
157,7157,pass
158,7158, FAIL
159,7159,pass
160,7160,pass
161,7161,pass
162,7162,pass
163,7163,pass
164,7164, FAIL
165,7165,pass
166,7166,pass
167,7167,pass
168,7168,pass
169,7169,pass
170,7170,pass
171,7171,pass
172,7172,pass
173,7173,pass
174,7174, FAIL
175,7175,pass
176,7176,pass
177,7177,pass
178,7178,pass
179,7179,pass
180,7180,pass
181,7181,pass
182,7182,pass
183,7183,pass
184,7184,pass
185,7185,pass
186,7186,pass
