%CMSwaferCode:CMSchipCode:ChipColumn:ChipRow:Grading:Color:CutVersion:Status:Location:ChipBoardType:BoardNumber:Dose:Sensor:ProbingSite:Iref:IrefTrim:Vref_A:Vref_A_Trim:Vref_D:Vref_D_Trim:Vref_ADC:Vref_ADC_Trim:MON_ADC_Trim:VCAL_HIGH_slope:VCAL_HIGH_offset:VCAL_MED_slope:VCAL_MED_offset:TrefTsensors:Nf1:Nf2:Nf3:Nf4:RD53chipID:Comment:BoardComment:
TSMC_N2WX39-10B5:TSMC_N2WX39-10B5_6_11:6:11:10:red:4:10:CERN:0:0:0:none:CERN:0:0:0:0:0:0:0:0:0:0.000E+00:0.000E+00:0.000E+00:0.000E+00:0:0:0:0:0:596B:Probed at CERN, Iref = 0 with trim bits 0:No loaded to any board yet
TSMC_N2WX39-10B5:TSMC_N2WX39-10B5_1_6:1:6:2:green:4:2:CERN:0:0:0:none:CERN:3.996448e-06:8:1.199398:19:1.201464:22:0.9010868:10:0:2.101E-04:1.123E-02:2.115E-04:1.071E-02:0:0:0:0:0:5916:Probed at CERN, Iref = 3.996448e-06 with trim bits 8:No loaded to any board yet
TSMC_N2WX39-10B5:TSMC_N2WX39-10B5_8_4:8:4:2:green:4:2:CERN:0:0:0:none:CERN:4.046726e-06:8:1.199966:22:1.193815:21:0.8998579:10:0:2.086E-04:1.139E-02:2.101E-04:1.088E-02:0:0:0:0:0:5984:Probed at CERN, Iref = 4.046726e-06 with trim bits 8:No loaded to any board yet
TSMC_N2WX39-10B5:TSMC_N2WX39-10B5_7_4:7:4:2:green:4:2:CERN:0:0:0:none:CERN:3.966382e-06:9:1.193172:21:1.197316:23:0.9039069:12:0:2.099E-04:1.181E-02:2.115E-04:1.136E-02:0:0:0:0:0:5974:Probed at CERN, Iref = 3.966382e-06 with trim bits 9:No loaded to any board yet
TSMC_N2WX39-10B5:TSMC_N2WX39-10B5_5_12:5:12:1:yellow:4:1:CERN:0:0:0:none:CERN:4.00189e-06:8:1.208789:24:1.201939:17:0.9030274:10:0:2.080E-04:2.066E-02:2.095E-04:2.023E-02:0:0:0:0:0:595C:Probed at CERN, Iref = 4.00189e-06 with trim bits 8:No loaded to any board yet
TSMC_N2WX39-10B5:TSMC_N2WX39-10B5_3_5:3:5:2:green:4:2:CERN:0:0:0:none:CERN:3.995302e-06:7:1.20263:25:1.196186:25:0.8986412:9:0:2.086E-04:1.099E-02:2.102E-04:1.056E-02:0:0:0:0:0:5935:Probed at CERN, Iref = 3.995302e-06 with trim bits 7:No loaded to any board yet
TSMC_N2WX39-10B5:TSMC_N2WX39-10B5_10_5:10:5:2:green:4:2:CERN:0:0:0:none:CERN:3.986569e-06:8:1.196612:25:1.193634:17:0.9026389:12:0:2.102E-04:1.090E-02:2.118E-04:1.043E-02:0:0:0:0:0:59A5:Probed at CERN, Iref = 3.986569e-06 with trim bits 8:No loaded to any board yet
TSMC_N2WX39-10B5:TSMC_N2WX39-10B5_7_12:7:12:2:green:4:2:CERN:0:0:0:none:CERN:3.968441e-06:7:1.200876:26:1.196091:21:0.900873:9:0:2.094E-04:1.368E-02:2.108E-04:1.324E-02:0:0:0:0:0:597C:Probed at CERN, Iref = 3.968441e-06 with trim bits 7:No loaded to any board yet
TSMC_N2WX39-10B5:TSMC_N2WX39-10B5_6_12:6:12:2:green:4:2:CERN:0:0:0:none:CERN:3.99617e-06:7:1.19552:26:1.204715:18:0.8969774:11:0:2.050E-04:2.735E-02:2.067E-04:2.694E-02:0:0:0:0:0:596C:Probed at CERN, Iref = 3.99617e-06 with trim bits 7:No loaded to any board yet
TSMC_N2WX39-10B5:TSMC_N2WX39-10B5_5_11:5:11:2:green:4:2:CERN:0:0:0:none:CERN:3.983677e-06:9:1.195809:23:1.195914:16:0.8977431:12:0:2.076E-04:1.651E-02:2.091E-04:1.608E-02:0:0:0:0:0:595B:Probed at CERN, Iref = 3.983677e-06 with trim bits 9:No loaded to any board yet
TSMC_N2WX39-10B5:TSMC_N2WX39-10B5_9_10:9:10:1:yellow:4:1:CERN:0:0:0:none:CERN:4.022563e-06:9:1.198842:24:1.199924:16:0.8987083:12:0:2.084E-04:1.450E-02:2.100E-04:1.406E-02:0:0:0:0:0:599A:Probed at CERN, Iref = 4.022563e-06 with trim bits 9:No loaded to any board yet
TSMC_N2WX39-10B5:TSMC_N2WX39-10B5_8_10:8:10:2:green:4:2:CERN:0:0:0:none:CERN:3.965374e-06:10:1.201064:25:1.195246:19:0.8984808:10:0:2.089E-04:1.312E-02:2.103E-04:1.266E-02:0:0:0:0:0:598A:Probed at CERN, Iref = 3.965374e-06 with trim bits 10:No loaded to any board yet
TSMC_N2WX39-10B5:TSMC_N2WX39-10B5_5_10:5:10:2:green:4:2:CERN:0:0:0:none:CERN:4.009193e-06:10:1.204707:27:1.199979:20:0.8989505:11:0:2.087E-04:1.293E-02:2.102E-04:1.239E-02:0:0:0:0:0:595A:Probed at CERN, Iref = 4.009193e-06 with trim bits 10:No loaded to any board yet
TSMC_N2WX39-10B5:TSMC_N2WX39-10B5_4_10:4:10:2:green:4:2:CERN:0:0:0:none:CERN:3.995438e-06:7:1.201669:25:1.200279:23:0.900003:11:0:2.085E-04:1.326E-02:2.100E-04:1.295E-02:0:0:0:0:0:594A:Probed at CERN, Iref = 3.995438e-06 with trim bits 7:No loaded to any board yet
TSMC_N2WX39-10B5:TSMC_N2WX39-10B5_3_9:3:9:10:red:4:10:CERN:0:0:0:none:CERN:4.050471e-06:9:1.199033:24:1.199547:23:0.8990743:8:0:2.085E-04:1.240E-02:2.100E-04:1.208E-02:0:0:0:0:0:5939:Probed at CERN, Iref = 4.050471e-06 with trim bits 9:No loaded to any board yet
TSMC_N2WX39-10B5:TSMC_N2WX39-10B5_4_9:4:9:2:green:4:2:CERN:0:0:0:none:CERN:3.956729e-06:9:1.190844:23:1.206023:16:0.8971785:13:0:2.085E-04:1.221E-02:2.100E-04:1.189E-02:0:0:0:0:0:5949:Probed at CERN, Iref = 3.956729e-06 with trim bits 9:No loaded to any board yet
TSMC_N2WX39-10B5:TSMC_N2WX39-10B5_7_9:7:9:2:green:4:2:CERN:0:0:0:none:CERN:3.969359e-06:6:1.206721:22:1.201356:15:0.8996416:11:0:2.093E-04:1.216E-02:2.109E-04:1.177E-02:0:0:0:0:0:5979:Probed at CERN, Iref = 3.969359e-06 with trim bits 6:No loaded to any board yet
TSMC_N2WX39-10B5:TSMC_N2WX39-10B5_8_9:8:9:1:yellow:4:1:CERN:0:0:0:none:CERN:4.022309e-06:11:1.196525:23:1.194788:21:0.899213:9:0:2.086E-04:1.269E-02:2.102E-04:1.218E-02:0:0:0:0:0:5989:Probed at CERN, Iref = 4.022309e-06 with trim bits 11:No loaded to any board yet
TSMC_N2WX39-10B5:TSMC_N2WX39-10B5_9_8:9:8:2:green:4:2:CERN:0:0:0:none:CERN:4.017978e-06:11:1.199428:24:1.200131:18:0.8999348:12:0:2.090E-04:1.199E-02:2.107E-04:1.119E-02:0:0:0:0:0:5998:Probed at CERN, Iref = 4.017978e-06 with trim bits 11:No loaded to any board yet
TSMC_N2WX39-10B5:TSMC_N2WX39-10B5_4_12:4:12:2:green:4:2:CERN:0:0:0:none:CERN:3.985186e-06:8:1.197994:21:1.205008:20:0.89977:8:0:2.082E-04:1.780E-02:2.097E-04:1.727E-02:0:0:0:0:0:594C:Probed at CERN, Iref = 3.985186e-06 with trim bits 8:No loaded to any board yet
TSMC_N2WX39-10B5:TSMC_N2WX39-10B5_3_11:3:11:2:green:4:2:CERN:0:0:0:none:CERN:4.029034e-06:8:1.199254:21:1.19875:15:0.9008662:8:0:2.088E-04:1.541E-02:2.103E-04:1.509E-02:0:0:0:0:0:593B:Probed at CERN, Iref = 4.029034e-06 with trim bits 8:No loaded to any board yet
TSMC_N2WX39-10B5:TSMC_N2WX39-10B5_4_11:4:11:1:yellow:4:1:CERN:0:0:0:none:CERN:3.968807e-06:7:1.194534:23:1.202502:12:0.9017213:11:0:2.085E-04:1.551E-02:2.101E-04:1.507E-02:0:0:0:0:0:594B:Probed at CERN, Iref = 3.968807e-06 with trim bits 7:No loaded to any board yet
TSMC_N2WX39-10B5:TSMC_N2WX39-10B5_8_8:8:8:1:yellow:4:1:CERN:0:0:0:none:CERN:4.039992e-06:10:1.196992:26:1.203211:18:0.8993691:9:0:2.089E-04:1.158E-02:2.105E-04:1.113E-02:0:0:0:0:0:5988:Probed at CERN, Iref = 4.039992e-06 with trim bits 10:No loaded to any board yet
TSMC_N2WX39-10B5:TSMC_N2WX39-10B5_5_8:5:8:2:green:4:2:CERN:0:0:0:none:CERN:4.033552e-06:9:1.197934:28:1.206568:20:0.8977401:11:0:2.083E-04:1.199E-02:2.098E-04:1.156E-02:0:0:0:0:0:5958:Probed at CERN, Iref = 4.033552e-06 with trim bits 9:No loaded to any board yet
TSMC_N2WX39-10B5:TSMC_N2WX39-10B5_7_11:7:11:1:yellow:4:1:CERN:0:0:0:none:CERN:4.019141e-06:9:1.1888:27:1.210871:16:0.9000093:9:0:2.076E-04:1.730E-02:2.090E-04:1.700E-02:0:0:0:0:0:597B:Probed at CERN, Iref = 4.019141e-06 with trim bits 9:No loaded to any board yet
TSMC_N2WX39-10B5:TSMC_N2WX39-10B5_8_11:8:11:1:yellow:4:1:CERN:0:0:0:none:CERN:4.000102e-06:8:1.19946:29:1.203866:17:0.8977302:12:0:2.080E-04:1.518E-02:2.095E-04:1.458E-02:0:0:0:0:0:598B:Probed at CERN, Iref = 4.000102e-06 with trim bits 8:No loaded to any board yet
TSMC_N2WX39-10B5:TSMC_N2WX39-10B5_4_8:4:8:1:yellow:4:1:CERN:0:0:0:none:CERN:4.058135e-06:9:1.200833:25:1.195453:23:0.9019039:11:0:2.097E-04:1.148E-02:2.112E-04:1.120E-02:0:0:0:0:0:5948:Probed at CERN, Iref = 4.058135e-06 with trim bits 9:No loaded to any board yet
TSMC_N2WX39-10B5:TSMC_N2WX39-10B5_1_8:1:8:2:green:4:2:CERN:0:0:0:none:CERN:3.946278e-06:7:1.193915:21:1.208568:24:0.895537:11:0:2.088E-04:1.238E-02:2.102E-04:1.182E-02:0:0:0:0:0:5918:Probed at CERN, Iref = 3.946278e-06 with trim bits 7:No loaded to any board yet
TSMC_N2WX39-10B5:TSMC_N2WX39-10B5_7_10:7:10:2:green:4:2:CERN:0:0:0:none:CERN:3.995201e-06:7:1.206514:24:1.205289:22:0.9012459:11:0:2.091E-04:1.354E-02:2.108E-04:1.300E-02:0:0:0:0:0:597A:Probed at CERN, Iref = 3.995201e-06 with trim bits 7:No loaded to any board yet
TSMC_N2WX39-10B5:TSMC_N2WX39-10B5_6_10:6:10:2:green:4:2:CERN:0:0:0:none:CERN:4.024402e-06:10:1.199713:27:1.195161:15:0.89838:9:0:2.086E-04:1.341E-02:2.102E-04:1.297E-02:0:0:0:0:0:596A:Probed at CERN, Iref = 4.024402e-06 with trim bits 10:No loaded to any board yet
TSMC_N2WX39-10B5:TSMC_N2WX39-10B5_1_7:1:7:2:green:4:2:CERN:0:0:0:none:CERN:4.048059e-06:9:1.204636:25:1.194326:19:0.8979306:11:0:2.096E-04:1.107E-02:2.110E-04:1.077E-02:0:0:0:0:0:5917:Probed at CERN, Iref = 4.048059e-06 with trim bits 9:No loaded to any board yet
TSMC_N2WX39-10B5:TSMC_N2WX39-10B5_2_7:2:7:2:green:4:2:CERN:0:0:0:none:CERN:3.988313e-06:7:1.203992:24:1.200311:23:0.9005925:12:0:2.093E-04:1.180E-02:2.107E-04:1.153E-02:0:0:0:0:0:5927:Probed at CERN, Iref = 3.988313e-06 with trim bits 7:No loaded to any board yet
TSMC_N2WX39-10B5:TSMC_N2WX39-10B5_3_10:3:10:2:green:4:2:CERN:0:0:0:none:CERN:4.042832e-06:7:1.200915:26:1.201815:18:0.8977095:11:0:2.084E-04:1.246E-02:2.098E-04:1.207E-02:0:0:0:0:0:593A:Probed at CERN, Iref = 4.042832e-06 with trim bits 7:No loaded to any board yet
TSMC_N2WX39-10B5:TSMC_N2WX39-10B5_2_10:2:10:2:green:4:2:CERN:0:0:0:none:CERN:4.008852e-06:10:1.194191:21:1.199388:17:0.9012582:11:0:2.094E-04:1.261E-02:2.109E-04:1.216E-02:0:0:0:0:0:592A:Probed at CERN, Iref = 4.008852e-06 with trim bits 10:No loaded to any board yet
TSMC_N2WX39-10B5:TSMC_N2WX39-10B5_2_9:2:9:2:green:4:2:CERN:0:0:0:none:CERN:3.96475e-06:10:1.205458:26:1.204965:20:0.903107:12:0:2.099E-04:1.288E-02:2.114E-04:1.259E-02:0:0:0:0:0:5929:Probed at CERN, Iref = 3.96475e-06 with trim bits 10:No loaded to any board yet
TSMC_N2WX39-10B5:TSMC_N2WX39-10B5_5_1:5:1:2:green:4:2:CERN:0:0:0:none:CERN:4.006393e-06:7:1.188739:23:1.190707:15:0.8991126:14:0:2.098E-04:1.236E-02:2.113E-04:1.186E-02:0:0:0:0:0:5951:Probed at CERN, Iref = 4.006393e-06 with trim bits 7:No loaded to any board yet
TSMC_N2WX39-10B5:TSMC_N2WX39-10B5_9_4:9:4:1:yellow:4:1:CERN:0:0:0:none:CERN:4.003765e-06:8:1.199562:22:1.203673:23:0.8981593:11:0:2.088E-04:1.110E-02:2.104E-04:1.070E-02:0:0:0:0:0:5994:Probed at CERN, Iref = 4.003765e-06 with trim bits 8:No loaded to any board yet
TSMC_N2WX39-10B5:TSMC_N2WX39-10B5_5_7:5:7:2:green:4:2:CERN:0:0:0:none:CERN:4.023686e-06:10:1.206275:24:1.205397:22:0.90175:10:0:2.091E-04:1.050E-02:2.106E-04:1.012E-02:0:0:0:0:0:5957:Probed at CERN, Iref = 4.023686e-06 with trim bits 10:No loaded to any board yet
TSMC_N2WX39-10B5:TSMC_N2WX39-10B5_6_7:6:7:10:red:4:10:CERN:0:0:0:none:CERN:3.948458e-06:8:1.201264:24:1.19983:20:0.8979287:11:0:2.081E-04:1.252E-02:2.096E-04:1.205E-02:0:0:0:0:0:5967:Probed at CERN, Iref = 3.948458e-06 with trim bits 8:No loaded to any board yet
TSMC_N2WX39-10B5:TSMC_N2WX39-10B5_5_9:5:9:1:yellow:4:1:CERN:0:0:0:none:CERN:4.022066e-06:9:1.20001:24:1.193807:17:0.9007494:9:0:2.086E-04:1.274E-02:2.102E-04:1.238E-02:0:0:0:0:0:5959:Probed at CERN, Iref = 4.022066e-06 with trim bits 9:No loaded to any board yet
TSMC_N2WX39-10B5:TSMC_N2WX39-10B5_6_9:6:9:2:green:4:2:CERN:0:0:0:none:CERN:4.010918e-06:8:1.197842:26:1.203774:16:0.899454:11:0:2.091E-04:1.220E-02:2.107E-04:1.183E-02:0:0:0:0:0:5969:Probed at CERN, Iref = 4.010918e-06 with trim bits 8:No loaded to any board yet
TSMC_N2WX39-10B5:TSMC_N2WX39-10B5_9_7:9:7:2:green:4:2:CERN:0:0:0:none:CERN:4.02554e-06:9:1.203956:24:1.195705:22:0.8989167:11:0:2.081E-04:1.196E-02:2.097E-04:1.149E-02:0:0:0:0:0:5997:Probed at CERN, Iref = 4.02554e-06 with trim bits 9:No loaded to any board yet
TSMC_N2WX39-10B5:TSMC_N2WX39-10B5_10_7:10:7:2:green:4:2:CERN:0:0:0:none:CERN:4.031411e-06:10:1.194332:23:1.200844:20:0.8999234:10:0:2.093E-04:1.122E-02:2.109E-04:1.070E-02:0:0:0:0:0:59A7:Probed at CERN, Iref = 4.031411e-06 with trim bits 10:No loaded to any board yet
TSMC_N2WX39-10B5:TSMC_N2WX39-10B5_9_9:9:9:2:green:4:2:CERN:0:0:0:none:CERN:3.994065e-06:7:1.195687:25:1.199382:15:0.9050506:12:0:2.101E-04:1.169E-02:2.118E-04:1.104E-02:0:0:0:0:0:5999:Probed at CERN, Iref = 3.994065e-06 with trim bits 7:No loaded to any board yet
TSMC_N2WX39-10B5:TSMC_N2WX39-10B5_10_9:10:9:10:red:4:10:CERN:0:0:0:none:CERN:0:0:0:0:0:0:0:0:0:0.000E+00:0.000E+00:0.000E+00:0.000E+00:0:0:0:0:0:59A9:Probed at CERN, Iref = 0 with trim bits 0:No loaded to any board yet
TSMC_N2WX39-10B5:TSMC_N2WX39-10B5_10_8:10:8:2:green:4:2:CERN:0:0:0:none:CERN:4.012638e-06:8:1.203896:27:1.200334:16:0.9017876:13:0:2.096E-04:1.178E-02:2.110E-04:1.114E-02:0:0:0:0:0:59A8:Probed at CERN, Iref = 4.012638e-06 with trim bits 8:No loaded to any board yet
TSMC_N2WX39-10B5:TSMC_N2WX39-10B5_8_6:8:6:1:yellow:4:1:CERN:0:0:0:none:CERN:3.970573e-06:9:1.202771:31:1.198305:21:0.8978004:10:0:2.081E-04:1.169E-02:2.096E-04:1.133E-02:0:0:0:0:0:5986:Probed at CERN, Iref = 3.970573e-06 with trim bits 9:No loaded to any board yet
TSMC_N2WX39-10B5:TSMC_N2WX39-10B5_7_6:7:6:2:green:4:2:CERN:0:0:0:none:CERN:3.996069e-06:8:1.194346:23:1.193869:19:0.8986658:9:0:2.079E-04:1.240E-02:2.094E-04:1.207E-02:0:0:0:0:0:5976:Probed at CERN, Iref = 3.996069e-06 with trim bits 8:No loaded to any board yet
TSMC_N2WX39-10B5:TSMC_N2WX39-10B5_7_8:7:8:1:yellow:4:1:CERN:0:0:0:none:CERN:4.048048e-06:10:1.188389:23:1.20691:20:0.9037832:12:0:2.096E-04:1.203E-02:2.110E-04:1.152E-02:0:0:0:0:0:5978:Probed at CERN, Iref = 4.048048e-06 with trim bits 10:No loaded to any board yet
TSMC_N2WX39-10B5:TSMC_N2WX39-10B5_6_8:6:8:2:green:4:2:CERN:0:0:0:none:CERN:4.025452e-06:7:1.19221:23:1.190861:23:0.899245:9:0:2.085E-04:1.235E-02:2.099E-04:1.190E-02:0:0:0:0:0:5968:Probed at CERN, Iref = 4.025452e-06 with trim bits 7:No loaded to any board yet
TSMC_N2WX39-10B5:TSMC_N2WX39-10B5_8_5:8:5:2:green:4:2:CERN:0:0:0:none:CERN:4.027938e-06:10:1.205729:22:1.195701:21:0.902325:12:0:2.093E-04:1.133E-02:2.109E-04:1.087E-02:0:0:0:0:0:5985:Probed at CERN, Iref = 4.027938e-06 with trim bits 10:No loaded to any board yet
TSMC_N2WX39-10B5:TSMC_N2WX39-10B5_3_6:3:6:2:green:4:2:CERN:0:0:0:none:CERN:4.033348e-06:12:1.196675:21:1.198906:20:0.900365:13:0:2.092E-04:1.089E-02:2.106E-04:1.070E-02:0:0:0:0:0:5936:Probed at CERN, Iref = 4.033348e-06 with trim bits 12:No loaded to any board yet
TSMC_N2WX39-10B5:TSMC_N2WX39-10B5_3_8:3:8:2:green:4:2:CERN:0:0:0:none:CERN:3.965578e-06:8:1.195589:26:1.196602:23:0.898854:11:0:2.091E-04:1.092E-02:2.105E-04:1.060E-02:0:0:0:0:0:5938:Probed at CERN, Iref = 3.965578e-06 with trim bits 8:No loaded to any board yet
TSMC_N2WX39-10B5:TSMC_N2WX39-10B5_2_8:2:8:1:yellow:4:1:CERN:0:0:0:none:CERN:3.984273e-06:10:1.199215:28:1.199793:18:0.9038713:14:0:2.103E-04:1.137E-02:2.118E-04:1.109E-02:0:0:0:0:0:5928:Probed at CERN, Iref = 3.984273e-06 with trim bits 10:No loaded to any board yet
TSMC_N2WX39-10B5:TSMC_N2WX39-10B5_2_6:2:6:1:yellow:4:1:CERN:0:0:0:none:CERN:3.979355e-06:11:1.202054:26:1.203544:16:0.9023894:14:0:2.099E-04:1.077E-02:2.112E-04:1.064E-02:0:0:0:0:0:5926:Probed at CERN, Iref = 3.979355e-06 with trim bits 11:No loaded to any board yet
TSMC_N2WX39-10B5:TSMC_N2WX39-10B5_4_5:4:5:2:green:4:2:CERN:0:0:0:none:CERN:4.033119e-06:11:1.2032:25:1.188277:15:0.9003186:14:0:2.091E-04:1.140E-02:2.106E-04:1.103E-02:0:0:0:0:0:5945:Probed at CERN, Iref = 4.033119e-06 with trim bits 11:No loaded to any board yet
TSMC_N2WX39-10B5:TSMC_N2WX39-10B5_7_5:7:5:10:red:4:10:CERN:0:0:0:none:CERN:3.962216e-06:10:1.195379:26:1.199852:20:0.9017509:13:0:2.093E-04:1.140E-02:2.108E-04:1.090E-02:0:0:0:0:0:5975:Probed at CERN, Iref = 3.962216e-06 with trim bits 10:No loaded to any board yet
TSMC_N2WX39-10B5:TSMC_N2WX39-10B5_3_7:3:7:2:green:4:2:CERN:0:0:0:none:CERN:3.949322e-06:10:1.201778:25:1.204623:22:0.9010184:10:0:2.095E-04:1.167E-02:2.110E-04:1.143E-02:0:0:0:0:0:5937:Probed at CERN, Iref = 3.949322e-06 with trim bits 10:No loaded to any board yet
TSMC_N2WX39-10B5:TSMC_N2WX39-10B5_4_7:4:7:2:green:4:2:CERN:0:0:0:none:CERN:3.943326e-06:9:1.212016:24:1.210778:24:0.8997527:9:0:2.092E-04:1.128E-02:2.107E-04:1.068E-02:0:0:0:0:0:5947:Probed at CERN, Iref = 3.943326e-06 with trim bits 9:No loaded to any board yet
TSMC_N2WX39-10B5:TSMC_N2WX39-10B5_3_4:3:4:2:green:4:2:CERN:0:0:0:none:CERN:4.027787e-06:9:1.197591:23:1.196225:18:0.899753:12:0:2.089E-04:1.109E-02:2.104E-04:1.047E-02:0:0:0:0:0:5934:Probed at CERN, Iref = 4.027787e-06 with trim bits 9:No loaded to any board yet
TSMC_N2WX39-10B5:TSMC_N2WX39-10B5_7_7:7:7:1:yellow:4:1:CERN:0:0:0:none:CERN:3.97307e-06:8:1.192877:23:1.204669:16:0.8994481:12:0:2.075E-04:1.281E-02:2.092E-04:1.243E-02:0:0:0:0:0:5977:Probed at CERN, Iref = 3.97307e-06 with trim bits 8:No loaded to any board yet
TSMC_N2WX39-10B5:TSMC_N2WX39-10B5_8_7:8:7:2:green:4:2:CERN:0:0:0:none:CERN:3.962907e-06:8:1.209261:24:1.199351:22:0.9037818:12:0:2.099E-04:1.172E-02:2.115E-04:1.118E-02:0:0:0:0:0:5987:Probed at CERN, Iref = 3.962907e-06 with trim bits 8:No loaded to any board yet
TSMC_N2WX39-10B5:TSMC_N2WX39-10B5_6_1:6:1:1:yellow:4:1:CERN:0:0:0:none:CERN:3.991354e-06:7:1.202854:25:1.2027:20:0.897337:13:0:2.089E-04:1.107E-02:2.105E-04:1.043E-02:0:0:0:0:0:5961:Probed at CERN, Iref = 3.991354e-06 with trim bits 7:No loaded to any board yet
TSMC_N2WX39-10B5:TSMC_N2WX39-10B5_4_4:4:4:1:yellow:4:1:CERN:0:0:0:none:CERN:3.959218e-06:7:1.204615:27:1.198021:23:0.9023911:12:0:2.097E-04:1.100E-02:2.111E-04:1.067E-02:0:0:0:0:0:5944:Probed at CERN, Iref = 3.959218e-06 with trim bits 7:No loaded to any board yet
TSMC_N2WX39-10B5:TSMC_N2WX39-10B5_10_6:10:6:1:yellow:4:1:CERN:0:0:0:none:CERN:3.998723e-06:9:1.199603:29:1.197435:18:0.9004416:12:0:2.098E-04:1.121E-02:2.113E-04:1.069E-02:0:0:0:0:0:59A6:Probed at CERN, Iref = 3.998723e-06 with trim bits 9:No loaded to any board yet
TSMC_N2WX39-10B5:TSMC_N2WX39-10B5_9_6:9:6:2:green:4:2:CERN:0:0:0:none:CERN:4.013734e-06:9:1.202987:22:1.196312:18:0.8964897:11:0:2.082E-04:1.186E-02:2.097E-04:1.137E-02:0:0:0:0:0:5996:Probed at CERN, Iref = 4.013734e-06 with trim bits 9:No loaded to any board yet
TSMC_N2WX39-10B5:TSMC_N2WX39-10B5_4_3:4:3:1:yellow:4:1:CERN:0:0:0:none:CERN:4.010335e-06:8:1.208041:28:1.199097:23:0.900174:11:0:2.095E-04:1.101E-02:2.109E-04:1.059E-02:0:0:0:0:0:5943:Probed at CERN, Iref = 4.010335e-06 with trim bits 8:No loaded to any board yet
TSMC_N2WX39-10B5:TSMC_N2WX39-10B5_5_3:5:3:2:green:4:2:CERN:0:0:0:none:CERN:3.964786e-06:9:1.196808:20:1.208598:20:0.9050127:12:0:2.106E-04:1.177E-02:2.119E-04:1.153E-02:0:0:0:0:0:5953:Probed at CERN, Iref = 3.964786e-06 with trim bits 9:No loaded to any board yet
TSMC_N2WX39-10B5:TSMC_N2WX39-10B5_9_3:9:3:1:yellow:4:1:CERN:0:0:0:none:CERN:4.009982e-06:8:1.202022:22:1.194357:19:0.9017872:8:0:2.097E-04:1.152E-02:2.110E-04:1.106E-02:0:0:0:0:0:5993:Probed at CERN, Iref = 4.009982e-06 with trim bits 8:No loaded to any board yet
TSMC_N2WX39-10B5:TSMC_N2WX39-10B5_6_6:6:6:2:green:4:2:CERN:0:0:0:none:CERN:4.036687e-06:8:1.20091:24:1.204787:22:0.8986477:13:0:2.086E-04:1.158E-02:2.101E-04:1.114E-02:0:0:0:0:0:5966:Probed at CERN, Iref = 4.036687e-06 with trim bits 8:No loaded to any board yet
TSMC_N2WX39-10B5:TSMC_N2WX39-10B5_5_6:5:6:2:green:4:2:CERN:0:0:0:none:CERN:3.976271e-06:8:1.1964:22:1.201529:16:0.9010606:10:0:2.094E-04:1.142E-02:2.110E-04:1.079E-02:0:0:0:0:0:5956:Probed at CERN, Iref = 3.976271e-06 with trim bits 8:No loaded to any board yet
TSMC_N2WX39-10B5:TSMC_N2WX39-10B5_4_6:4:6:2:green:4:2:CERN:0:0:0:none:CERN:3.984024e-06:7:1.201506:26:1.201225:22:0.9013447:12:0:2.095E-04:1.096E-02:2.109E-04:1.058E-02:0:0:0:0:0:5946:Probed at CERN, Iref = 3.984024e-06 with trim bits 7:No loaded to any board yet
TSMC_N2WX39-10B5:TSMC_N2WX39-10B5_8_2:8:2:2:green:4:2:CERN:0:0:0:none:CERN:3.93348e-06:7:1.192747:25:1.209176:16:0.9047002:12:0:2.103E-04:1.202E-02:2.118E-04:1.156E-02:0:0:0:0:0:5982:Probed at CERN, Iref = 3.93348e-06 with trim bits 7:No loaded to any board yet
TSMC_N2WX39-10B5:TSMC_N2WX39-10B5_5_2:5:2:1:yellow:4:1:CERN:0:0:0:none:CERN:4.049187e-06:9:1.189689:27:1.196328:16:0.9010083:13:0:2.090E-04:1.205E-02:2.106E-04:1.173E-02:0:0:0:0:0:5952:Probed at CERN, Iref = 4.049187e-06 with trim bits 9:No loaded to any board yet
TSMC_N2WX39-10B5:TSMC_N2WX39-10B5_2_5:2:5:1:yellow:4:1:CERN:0:0:0:none:CERN:3.971666e-06:7:1.204228:25:1.197721:19:0.8989432:12:0:2.091E-04:1.092E-02:2.106E-04:1.047E-02:0:0:0:0:0:5925:Probed at CERN, Iref = 3.971666e-06 with trim bits 7:No loaded to any board yet
TSMC_N2WX39-10B5:TSMC_N2WX39-10B5_4_2:4:2:2:green:4:2:CERN:0:0:0:none:CERN:4.051605e-06:10:1.202524:24:1.19468:21:0.8994654:16:0:2.092E-04:1.181E-02:2.108E-04:1.135E-02:0:0:0:0:0:5942:Probed at CERN, Iref = 4.051605e-06 with trim bits 10:No loaded to any board yet
TSMC_N2WX39-10B5:TSMC_N2WX39-10B5_5_5:5:5:2:green:4:2:CERN:0:0:0:none:CERN:3.990278e-06:11:1.199238:25:1.198101:20:0.9011899:12:0:2.092E-04:1.160E-02:2.107E-04:1.108E-02:0:0:0:0:0:5955:Probed at CERN, Iref = 3.990278e-06 with trim bits 11:No loaded to any board yet
TSMC_N2WX39-10B5:TSMC_N2WX39-10B5_6_5:6:5:1:yellow:4:1:CERN:0:0:0:none:CERN:3.963476e-06:9:1.197955:28:1.201628:17:0.9050875:12:0:2.102E-04:1.135E-02:2.117E-04:1.097E-02:0:0:0:0:0:5965:Probed at CERN, Iref = 3.963476e-06 with trim bits 9:No loaded to any board yet
TSMC_N2WX39-10B5:TSMC_N2WX39-10B5_6_4:6:4:2:green:4:2:CERN:0:0:0:none:CERN:3.954734e-06:8:1.20376:26:1.195216:17:0.9011062:12:0:2.093E-04:1.128E-02:2.107E-04:1.089E-02:0:0:0:0:0:5964:Probed at CERN, Iref = 3.954734e-06 with trim bits 8:No loaded to any board yet
TSMC_N2WX39-10B5:TSMC_N2WX39-10B5_9_5:9:5:2:green:4:2:CERN:0:0:0:none:CERN:3.982307e-06:7:1.19899:26:1.20116:20:0.8996028:13:0:2.092E-04:1.098E-02:2.108E-04:1.055E-02:0:0:0:0:0:5995:Probed at CERN, Iref = 3.982307e-06 with trim bits 7:No loaded to any board yet
TSMC_N2WX39-10B5:TSMC_N2WX39-10B5_5_4:5:4:10:red:4:10:CERN:0:0:0:none:CERN:3.982673e-06:8:1.204025:27:1.192939:19:0.9039057:12:0:2.105E-04:1.178E-02:2.120E-04:1.131E-02:0:0:0:0:0:5954:Probed at CERN, Iref = 3.982673e-06 with trim bits 8:No loaded to any board yet
TSMC_N2WX39-10B5:TSMC_N2WX39-10B5_2_4:2:4:1:yellow:4:1:CERN:0:0:0:none:CERN:4.009325e-06:10:1.194638:21:1.203257:22:0.9027971:12:0:2.101E-04:1.128E-02:2.114E-04:1.119E-02:0:0:0:0:0:5924:Probed at CERN, Iref = 4.009325e-06 with trim bits 10:No loaded to any board yet
TSMC_N2WX39-10B5:TSMC_N2WX39-10B5_2_3:2:3:10:red:4:10:CERN:0:0:0:none:CERN:0:0:0:0:0:0:0:0:0:0.000E+00:0.000E+00:0.000E+00:0.000E+00:0:0:0:0:0:5923:Probed at CERN, Iref = 0 with trim bits 0:No loaded to any board yet
TSMC_N2WX39-10B5:TSMC_N2WX39-10B5_3_3:3:3:2:green:4:2:CERN:0:0:0:none:CERN:3.986672e-06:8:1.199384:22:1.206005:16:0.90039:13:0:2.095E-04:1.087E-02:2.110E-04:1.050E-02:0:0:0:0:0:5933:Probed at CERN, Iref = 3.986672e-06 with trim bits 8:No loaded to any board yet
TSMC_N2WX39-10B5:TSMC_N2WX39-10B5_6_3:6:3:2:green:4:2:CERN:0:0:0:none:CERN:3.956405e-06:7:1.194286:21:1.202987:15:0.8985492:13:0:2.087E-04:1.152E-02:2.101E-04:1.127E-02:0:0:0:0:0:5963:Probed at CERN, Iref = 3.956405e-06 with trim bits 7:No loaded to any board yet
TSMC_N2WX39-10B5:TSMC_N2WX39-10B5_7_3:7:3:2:green:4:2:CERN:0:0:0:none:CERN:3.952428e-06:9:1.20745:20:1.202145:23:0.8986021:11:0:2.090E-04:1.137E-02:2.105E-04:1.086E-02:0:0:0:0:0:5973:Probed at CERN, Iref = 3.952428e-06 with trim bits 9:No loaded to any board yet
TSMC_N2WX39-10B5:TSMC_N2WX39-10B5_8_3:8:3:2:green:4:2:CERN:0:0:0:none:CERN:4.014277e-06:10:1.211419:24:1.200394:23:0.9012552:13:0:2.097E-04:1.159E-02:2.111E-04:1.112E-02:0:0:0:0:0:5983:Probed at CERN, Iref = 4.014277e-06 with trim bits 10:No loaded to any board yet
TSMC_N2WX39-10B5:TSMC_N2WX39-10B5_7_2:7:2:2:green:4:2:CERN:0:0:0:none:CERN:4.04043e-06:8:1.202882:22:1.198222:22:0.8970252:11:0:2.080E-04:1.235E-02:2.095E-04:1.195E-02:0:0:0:0:0:5972:Probed at CERN, Iref = 4.04043e-06 with trim bits 8:No loaded to any board yet
TSMC_N2WX39-10B5:TSMC_N2WX39-10B5_6_2:6:2:2:green:4:2:CERN:0:0:0:none:CERN:4.040466e-06:9:1.195745:23:1.199023:19:0.9018188:13:0:2.092E-04:1.252E-02:2.109E-04:1.195E-02:0:0:0:0:0:5962:Probed at CERN, Iref = 4.040466e-06 with trim bits 9:No loaded to any board yet
