%CMSwaferCode:CMSchipCode:ChipColumn:ChipRow:Grading:Color:CutVersion:Status:Location:ChipBoardType:BoardNumber:Dose:Sensor:ProbingSite:Iref:IrefTrim:Vref_A:Vref_A_Trim:Vref_D:Vref_D_Trim:Vref_ADC:Vref_ADC_Trim:MON_ADC_Trim:VCAL_HIGH_slope:VCAL_HIGH_offset:VCAL_MED_slope:VCAL_MED_offset:TrefTsensors:Nf1:Nf2:Nf3:Nf4:RD53chipID:Comment:BoardComment:
TSMC_N2WX39-15F7:TSMC_N2WX39-15F7_4_11:4:11:1:yellow:4:1:Torino:0:0:0:none:Torino:3.969299e-06:8:1.198325:28:1.194386:21:0.9013626:9:0:4.670E-09:9.481E-02:1.367E-08:1.359E-01:0:0:0:0:0:5E4B:Probed at Torino, Iref = 3.969299e-06 with trim bits 8:No loaded to any board yet
TSMC_N2WX39-15F7:TSMC_N2WX39-15F7_4_12:4:12:2:green:4:2:Torino:0:0:0:none:Torino:3.969202e-06:7:1.200013:23:1.203803:25:0.9016901:5:0:8.713E-09:8.615E-02:1.600E-09:1.285E-01:0:0:0:0:0:5E4C:Probed at Torino, Iref = 3.969202e-06 with trim bits 7:No loaded to any board yet
TSMC_N2WX39-15F7:TSMC_N2WX39-15F7_7_12:7:12:1:yellow:4:1:Torino:0:0:0:none:Torino:3.952386e-06:6:1.206826:24:1.202831:16:0.9008541:7:0:-5.133E-10:8.507E-02:1.527E-08:1.274E-01:0:0:0:0:0:5E7C:Probed at Torino, Iref = 3.952386e-06 with trim bits 6:No loaded to any board yet
TSMC_N2WX39-15F7:TSMC_N2WX39-15F7_7_11:7:11:1:yellow:4:1:Torino:0:0:0:none:Torino:3.950067e-06:8:1.195479:28:1.20173:19:0.8982794:6:0:1.551E-08:9.488E-02:-3.067E-09:1.360E-01:0:0:0:0:0:5E7B:Probed at Torino, Iref = 3.950067e-06 with trim bits 8:No loaded to any board yet
TSMC_N2WX39-15F7:TSMC_N2WX39-15F7_6_12:6:12:1:yellow:4:1:Torino:0:0:0:none:Torino:4.059578e-06:6:1.204639:22:1.201262:17:0.8946178:7:0:1.007E-08:9.408E-02:-6.767E-09:1.350E-01:0:0:0:0:0:5E6C:Probed at Torino, Iref = 4.059578e-06 with trim bits 6:No loaded to any board yet
TSMC_N2WX39-15F7:TSMC_N2WX39-15F7_6_11:6:11:1:yellow:4:1:Torino:0:0:0:none:Torino:4.027813e-06:6:1.191189:27:1.200559:19:0.9018468:9:0:6.187E-09:9.590E-02:-9.067E-09:1.371E-01:0:0:0:0:0:5E6B:Probed at Torino, Iref = 4.027813e-06 with trim bits 6:No loaded to any board yet
TSMC_N2WX39-15F7:TSMC_N2WX39-15F7_5_12:5:12:2:green:4:2:Torino:0:0:0:none:Torino:4.040515e-06:8:1.203664:18:1.204555:18:0.9056934:8:0:5.143E-09:8.911E-02:-6.533E-09:1.313E-01:0:0:0:0:0:5E5C:Probed at Torino, Iref = 4.040515e-06 with trim bits 8:No loaded to any board yet
TSMC_N2WX39-15F7:TSMC_N2WX39-15F7_6_10:6:10:1:yellow:4:1:Torino:0:0:0:none:Torino:4.063599e-06:6:1.196752:23:1.195774:17:0.9027914:6:0:1.120E-08:1.071E-01:1.703E-08:1.466E-01:0:0:0:0:0:5E6A:Probed at Torino, Iref = 4.063599e-06 with trim bits 6:No loaded to any board yet
TSMC_N2WX39-15F7:TSMC_N2WX39-15F7_3_10:3:10:10:red:4:10:Torino:0:0:0:none:Torino:0:0:0:0:0:0:0:0:0:0.000E+00:0.000E+00:0.000E+00:0.000E+00:0:0:0:0:0:5E3A:Probed at Torino, Iref = 0 with trim bits 0:No loaded to any board yet
TSMC_N2WX39-15F7:TSMC_N2WX39-15F7_3_11:3:11:2:green:4:2:Torino:0:0:0:none:Torino:3.986182e-06:8:1.196205:22:1.193795:19:0.8980459:6:0:1.235E-08:8.773E-02:3.333E-11:1.297E-01:0:0:0:0:0:5E3B:Probed at Torino, Iref = 3.986182e-06 with trim bits 8:No loaded to any board yet
TSMC_N2WX39-15F7:TSMC_N2WX39-15F7_10_9:10:9:10:red:4:10:Torino:0:0:0:none:Torino:0:0:0:0:0:0:0:0:0:0.000E+00:0.000E+00:0.000E+00:0.000E+00:0:0:0:0:0:5EA9:Probed at Torino, Iref = 0 with trim bits 0:No loaded to any board yet
TSMC_N2WX39-15F7:TSMC_N2WX39-15F7_5_11:5:11:1:yellow:4:1:Torino:0:0:0:none:Torino:4.009389e-06:6:1.198398:21:1.201631:18:0.8969485:5:0:6.577E-09:9.327E-02:-5.400E-09:1.345E-01:0:0:0:0:0:5E5B:Probed at Torino, Iref = 4.009389e-06 with trim bits 6:No loaded to any board yet
TSMC_N2WX39-15F7:TSMC_N2WX39-15F7_7_9:7:9:1:yellow:4:1:Torino:0:0:0:none:Torino:4.029441e-06:7:1.187578:23:1.203947:17:0.9003724:7:0:4.727E-09:9.793E-02:6.367E-09:1.388E-01:0:0:0:0:0:5E79:Probed at Torino, Iref = 4.029441e-06 with trim bits 7:No loaded to any board yet
TSMC_N2WX39-15F7:TSMC_N2WX39-15F7_9_10:9:10:1:yellow:4:1:Torino:0:0:0:none:Torino:4.032795e-06:8:1.203339:26:1.201005:16:0.8996387:7:0:-7.500E-10:9.200E-02:-5.733E-09:1.334E-01:0:0:0:0:0:5E9A:Probed at Torino, Iref = 4.032795e-06 with trim bits 8:No loaded to any board yet
TSMC_N2WX39-15F7:TSMC_N2WX39-15F7_4_9:4:9:1:yellow:4:1:Torino:0:0:0:none:Torino:4.06069e-06:8:1.19701:21:1.204469:22:0.8998446:10:0:3.800E-10:9.860E-02:-2.707E-08:1.392E-01:0:0:0:0:0:5E49:Probed at Torino, Iref = 4.06069e-06 with trim bits 8:No loaded to any board yet
TSMC_N2WX39-15F7:TSMC_N2WX39-15F7_8_11:8:11:1:yellow:4:1:Torino:0:0:0:none:Torino:4.028085e-06:8:1.203094:22:1.188481:15:0.9032129:8:0:8.270E-09:9.261E-02:1.013E-08:1.342E-01:0:0:0:0:0:5E8B:Probed at Torino, Iref = 4.028085e-06 with trim bits 8:No loaded to any board yet
TSMC_N2WX39-15F7:TSMC_N2WX39-15F7_8_10:8:10:1:yellow:4:1:Torino:0:0:0:none:Torino:3.991449e-06:10:1.197966:21:1.194:21:0.9005703:8:0:1.107E-08:9.881E-02:-1.150E-08:1.395E-01:0:0:0:0:0:5E8A:Probed at Torino, Iref = 3.991449e-06 with trim bits 10:No loaded to any board yet
TSMC_N2WX39-15F7:TSMC_N2WX39-15F7_5_10:5:10:1:yellow:4:1:Torino:0:0:0:none:Torino:3.972721e-06:6:1.204406:14:1.195442:17:0.9003434:6:0:3.860E-09:9.249E-02:-2.100E-09:1.340E-01:0:0:0:0:0:5E5A:Probed at Torino, Iref = 3.972721e-06 with trim bits 6:No loaded to any board yet
TSMC_N2WX39-15F7:TSMC_N2WX39-15F7_7_10:7:10:2:green:4:2:Torino:0:0:0:none:Torino:3.981511e-06:8:1.208285:28:1.203063:20:0.897343:9:0:6.310E-09:9.489E-02:-7.000E-10:1.359E-01:0:0:0:0:0:5E7A:Probed at Torino, Iref = 3.981511e-06 with trim bits 8:No loaded to any board yet
TSMC_N2WX39-15F7:TSMC_N2WX39-15F7_2_10:2:10:2:green:4:2:Torino:0:0:0:none:Torino:4.012303e-06:9:1.202625:22:1.194163:21:0.9010726:9:0:1.661E-08:8.147E-02:1.933E-08:1.243E-01:0:0:0:0:0:5E2A:Probed at Torino, Iref = 4.012303e-06 with trim bits 9:No loaded to any board yet
TSMC_N2WX39-15F7:TSMC_N2WX39-15F7_4_10:4:10:1:yellow:4:1:Torino:0:0:0:none:Torino:3.997587e-06:7:1.196026:26:1.207722:20:0.9030846:8:0:4.837E-09:9.472E-02:-1.130E-08:1.361E-01:0:0:0:0:0:5E4A:Probed at Torino, Iref = 3.997587e-06 with trim bits 7:No loaded to any board yet
TSMC_N2WX39-15F7:TSMC_N2WX39-15F7_3_7:3:7:1:yellow:4:1:Torino:0:0:0:none:Torino:3.941448e-06:6:1.196254:27:1.187935:23:0.8991495:8:0:5.827E-09:9.476E-02:3.233E-09:1.360E-01:0:0:0:0:0:5E37:Probed at Torino, Iref = 3.941448e-06 with trim bits 6:No loaded to any board yet
TSMC_N2WX39-15F7:TSMC_N2WX39-15F7_2_9:2:9:1:yellow:4:1:Torino:0:0:0:none:Torino:3.948592e-06:8:1.199288:25:1.199201:18:0.8992864:7:0:-7.993E-09:9.731E-02:-1.277E-08:1.380E-01:0:0:0:0:0:5E29:Probed at Torino, Iref = 3.948592e-06 with trim bits 8:No loaded to any board yet
TSMC_N2WX39-15F7:TSMC_N2WX39-15F7_3_8:3:8:2:green:4:2:Torino:0:0:0:none:Torino:3.967466e-06:7:1.192957:21:1.201505:17:0.8971374:9:0:3.083E-09:8.505E-02:-1.733E-09:1.274E-01:0:0:0:0:0:5E38:Probed at Torino, Iref = 3.967466e-06 with trim bits 7:No loaded to any board yet
TSMC_N2WX39-15F7:TSMC_N2WX39-15F7_3_9:3:9:1:yellow:4:1:Torino:0:0:0:none:Torino:3.997932e-06:7:1.197394:26:1.204956:23:0.9017017:9:0:2.910E-09:9.661E-02:1.123E-08:1.375E-01:0:0:0:0:0:5E39:Probed at Torino, Iref = 3.997932e-06 with trim bits 7:No loaded to any board yet
TSMC_N2WX39-15F7:TSMC_N2WX39-15F7_10_8:10:8:1:yellow:4:1:Torino:0:0:0:none:Torino:3.998254e-06:7:1.211624:24:1.211599:16:0.9011343:9:0:-7.533E-10:9.110E-02:-7.833E-09:1.328E-01:0:0:0:0:0:5EA8:Probed at Torino, Iref = 3.998254e-06 with trim bits 7:No loaded to any board yet
TSMC_N2WX39-15F7:TSMC_N2WX39-15F7_5_9:5:9:2:green:4:2:Torino:0:0:0:none:Torino:3.968147e-06:8:1.201696:20:1.194594:21:0.9032621:10:0:-4.137E-09:9.658E-02:-4.500E-09:1.377E-01:0:0:0:0:0:5E59:Probed at Torino, Iref = 3.968147e-06 with trim bits 8:No loaded to any board yet
TSMC_N2WX39-15F7:TSMC_N2WX39-15F7_6_9:6:9:1:yellow:4:1:Torino:0:0:0:none:Torino:3.949481e-06:6:1.197475:18:1.194967:21:0.9016298:9:0:-6.973E-09:9.413E-02:2.567E-09:1.354E-01:0:0:0:0:0:5E69:Probed at Torino, Iref = 3.949481e-06 with trim bits 6:No loaded to any board yet
TSMC_N2WX39-15F7:TSMC_N2WX39-15F7_8_9:8:9:2:green:4:2:Torino:0:0:0:none:Torino:3.981915e-06:7:1.188655:23:1.197857:14:0.9011948:7:0:2.133E-10:9.666E-02:5.333E-10:1.376E-01:0:0:0:0:0:5E89:Probed at Torino, Iref = 3.981915e-06 with trim bits 7:No loaded to any board yet
TSMC_N2WX39-15F7:TSMC_N2WX39-15F7_5_6:5:6:1:yellow:4:1:Torino:0:0:0:none:Torino:3.989154e-06:8:1.198151:19:1.200522:12:0.904124:8:0:1.580E-09:9.809E-02:6.467E-09:1.391E-01:0:0:0:0:0:5E56:Probed at Torino, Iref = 3.989154e-06 with trim bits 8:No loaded to any board yet
TSMC_N2WX39-15F7:TSMC_N2WX39-15F7_6_7:6:7:1:yellow:4:1:Torino:0:0:0:none:Torino:3.980326e-06:8:1.204263:22:1.20608:18:0.8996479:6:0:-5.500E-09:9.994E-02:-5.167E-09:1.402E-01:0:0:0:0:0:5E67:Probed at Torino, Iref = 3.980326e-06 with trim bits 8:No loaded to any board yet
TSMC_N2WX39-15F7:TSMC_N2WX39-15F7_9_9:9:9:10:red:4:10:Torino:0:0:0:none:Torino:0:0:0:0:0:0:0:0:0:0.000E+00:0.000E+00:0.000E+00:0.000E+00:0:0:0:0:0:5E99:Probed at Torino, Iref = 0 with trim bits 0:No loaded to any board yet
TSMC_N2WX39-15F7:TSMC_N2WX39-15F7_8_8:8:8:2:green:4:2:Torino:0:0:0:none:Torino:3.992425e-06:6:1.203001:24:1.196039:19:0.8961816:11:0:8.467E-09:8.124E-02:2.021E-07:2.350E-01:0:0:0:0:0:5E88:Probed at Torino, Iref = 3.992425e-06 with trim bits 6:No loaded to any board yet
TSMC_N2WX39-15F7:TSMC_N2WX39-15F7_9_8:9:8:1:yellow:4:1:Torino:0:0:0:none:Torino:4.025188e-06:9:1.203745:24:1.19909:17:0.898048:7:0:-1.833E-09:9.917E-02:9.200E-09:1.396E-01:0:0:0:0:0:5E98:Probed at Torino, Iref = 4.025188e-06 with trim bits 9:No loaded to any board yet
TSMC_N2WX39-15F7:TSMC_N2WX39-15F7_6_8:6:8:1:yellow:4:1:Torino:0:0:0:none:Torino:4.053303e-06:11:1.199475:24:1.198689:13:0.9006425:4:0:-7.833E-09:1.033E-01:-5.300E-09:1.431E-01:0:0:0:0:0:5E68:Probed at Torino, Iref = 4.053303e-06 with trim bits 11:No loaded to any board yet
TSMC_N2WX39-15F7:TSMC_N2WX39-15F7_7_5:7:5:1:yellow:4:1:Torino:0:0:0:none:Torino:3.969715e-06:7:1.20366:28:1.201527:17:0.9010795:5:0:2.021E-04:4.214E-02:2.035E-04:4.171E-02:0:0:0:0:0:5E75:Probed at Torino, Iref = 3.969715e-06 with trim bits 7:No loaded to any board yet
TSMC_N2WX39-15F7:TSMC_N2WX39-15F7_5_8:5:8:10:red:4:10:Torino:0:0:0:none:Torino:4.009286e-06:8:1.206771:20:1.194471:15:0.9063414:8:0:-2.333E-10:1.007E-01:-1.933E-09:1.413E-01:0:0:0:0:0:5E58:Probed at Torino, Iref = 4.009286e-06 with trim bits 8:No loaded to any board yet
TSMC_N2WX39-15F7:TSMC_N2WX39-15F7_10_7:10:7:1:yellow:4:1:Torino:0:0:0:none:Torino:4.007501e-06:8:1.200084:25:1.202956:15:0.8964367:9:0:6.467E-10:9.137E-02:-3.700E-09:1.328E-01:0:0:0:0:0:5EA7:Probed at Torino, Iref = 4.007501e-06 with trim bits 8:No loaded to any board yet
TSMC_N2WX39-15F7:TSMC_N2WX39-15F7_4_8:4:8:1:yellow:4:1:Torino:0:0:0:none:Torino:3.973766e-06:8:1.201228:12:1.209401:16:0.8998544:8:0:-8.313E-09:9.517E-02:-4.733E-09:1.363E-01:0:0:0:0:0:5E48:Probed at Torino, Iref = 3.973766e-06 with trim bits 8:No loaded to any board yet
TSMC_N2WX39-15F7:TSMC_N2WX39-15F7_1_8:1:8:1:yellow:4:1:Torino:0:0:0:none:Torino:4.00368e-06:9:1.204161:20:1.199836:23:0.9009588:9:0:-2.130E-09:8.327E-02:-2.283E-08:1.258E-01:0:0:0:0:0:5E18:Probed at Torino, Iref = 4.00368e-06 with trim bits 9:No loaded to any board yet
TSMC_N2WX39-15F7:TSMC_N2WX39-15F7_2_8:2:8:1:yellow:4:1:Torino:0:0:0:none:Torino:4.050608e-06:11:1.190487:27:1.20396:21:0.9000471:8:0:4.187E-09:8.764E-02:-2.867E-09:1.296E-01:0:0:0:0:0:5E28:Probed at Torino, Iref = 4.050608e-06 with trim bits 11:No loaded to any board yet
TSMC_N2WX39-15F7:TSMC_N2WX39-15F7_1_7:1:7:1:yellow:4:1:Torino:0:0:0:none:Torino:3.960552e-06:8:1.193952:19:1.204438:20:0.9052543:8:0:7.230E-09:8.697E-02:-8.167E-09:1.294E-01:0:0:0:0:0:5E17:Probed at Torino, Iref = 3.960552e-06 with trim bits 8:No loaded to any board yet
TSMC_N2WX39-15F7:TSMC_N2WX39-15F7_4_7:4:7:1:yellow:4:1:Torino:0:0:0:none:Torino:3.970489e-06:9:1.202607:27:1.206553:16:0.8965092:7:0:-7.517E-09:9.468E-02:-1.823E-08:1.357E-01:0:0:0:0:0:5E47:Probed at Torino, Iref = 3.970489e-06 with trim bits 9:No loaded to any board yet
TSMC_N2WX39-15F7:TSMC_N2WX39-15F7_2_7:2:7:1:yellow:4:1:Torino:0:0:0:none:Torino:4.057376e-06:8:1.195559:21:1.193299:21:0.8986647:9:0:2.863E-09:9.424E-02:-5.633E-09:1.354E-01:0:0:0:0:0:5E27:Probed at Torino, Iref = 4.057376e-06 with trim bits 8:No loaded to any board yet
TSMC_N2WX39-15F7:TSMC_N2WX39-15F7_9_6:9:6:10:red:4:10:Torino:0:0:0:none:Torino:4.039982e-06:8:1.196928:21:1.210074:24:0.9006981:7:0:-5.501E-07:1.428E-01:7.633E-09:1.411E-01:0:0:0:0:0:5E96:Probed at Torino, Iref = 4.039982e-06 with trim bits 8:No loaded to any board yet
TSMC_N2WX39-15F7:TSMC_N2WX39-15F7_5_7:5:7:2:green:4:2:Torino:0:0:0:none:Torino:3.985174e-06:7:1.198905:25:1.199066:17:0.9048491:8:0:4.723E-09:8.743E-02:-2.600E-09:1.299E-01:0:0:0:0:0:5E57:Probed at Torino, Iref = 3.985174e-06 with trim bits 7:No loaded to any board yet
TSMC_N2WX39-15F7:TSMC_N2WX39-15F7_7_7:7:7:2:green:4:2:Torino:0:0:0:none:Torino:4.022517e-06:6:1.199327:25:1.197016:23:0.9018902:10:0:1.590E-09:8.766E-02:-7.033E-09:1.296E-01:0:0:0:0:0:5E77:Probed at Torino, Iref = 4.022517e-06 with trim bits 6:No loaded to any board yet
TSMC_N2WX39-15F7:TSMC_N2WX39-15F7_9_7:9:7:1:yellow:4:1:Torino:0:0:0:none:Torino:3.994151e-06:7:1.196102:21:1.206507:16:0.8940598:7:0:1.909E-08:9.573E-02:-8.467E-09:1.366E-01:0:0:0:0:0:5E97:Probed at Torino, Iref = 3.994151e-06 with trim bits 7:No loaded to any board yet
TSMC_N2WX39-15F7:TSMC_N2WX39-15F7_8_7:8:7:2:green:4:2:Torino:0:0:0:none:Torino:3.962762e-06:7:1.199161:27:1.198979:19:0.9039506:8:0:1.589E-08:9.296E-02:5.600E-09:1.345E-01:0:0:0:0:0:5E87:Probed at Torino, Iref = 3.962762e-06 with trim bits 7:No loaded to any board yet
TSMC_N2WX39-15F7:TSMC_N2WX39-15F7_10_6:10:6:2:green:4:2:Torino:0:0:0:none:Torino:4.008258e-06:7:1.200624:21:1.199955:10:0.9045801:8:0:2.068E-04:3.017E-02:2.079E-04:2.953E-02:0:0:0:0:0:5EA6:Probed at Torino, Iref = 4.008258e-06 with trim bits 7:No loaded to any board yet
TSMC_N2WX39-15F7:TSMC_N2WX39-15F7_1_6:1:6:2:green:4:2:Torino:0:0:0:none:Torino:4.015693e-06:6:1.19495:17:1.19672:20:0.9030232:6:0:-1.303E-09:8.924E-02:-2.667E-09:1.312E-01:0:0:0:0:0:5E16:Probed at Torino, Iref = 4.015693e-06 with trim bits 6:No loaded to any board yet
TSMC_N2WX39-15F7:TSMC_N2WX39-15F7_8_6:8:6:1:yellow:4:1:Torino:0:0:0:none:Torino:3.983709e-06:7:1.201976:27:1.200261:16:0.9009504:7:0:-9.433E-09:1.068E-01:3.833E-09:1.462E-01:0:0:0:0:0:5E86:Probed at Torino, Iref = 3.983709e-06 with trim bits 7:No loaded to any board yet
TSMC_N2WX39-15F7:TSMC_N2WX39-15F7_3_6:3:6:10:red:4:10:Torino:0:0:0:none:Torino:4.023805e-06:9:1.196539:20:1.199811:18:0.9057852:8:0:8.717E-09:9.091E-02:-4.967E-09:1.329E-01:0:0:0:0:0:5E36:Probed at Torino, Iref = 4.023805e-06 with trim bits 9:No loaded to any board yet
TSMC_N2WX39-15F7:TSMC_N2WX39-15F7_7_6:7:6:10:red:4:10:Torino:0:0:0:none:Torino:0:0:0:0:0:0:0:0:0:0.000E+00:0.000E+00:0.000E+00:0.000E+00:0:0:0:0:0:5E76:Probed at Torino, Iref = 0 with trim bits 0:No loaded to any board yet
TSMC_N2WX39-15F7:TSMC_N2WX39-15F7_9_5:9:5:10:red:4:10:Torino:0:0:0:none:Torino:0:0:0:0:0:0:0:0:0:0.000E+00:0.000E+00:0.000E+00:0.000E+00:0:0:0:0:0:5E95:Probed at Torino, Iref = 0 with trim bits 0:No loaded to any board yet
TSMC_N2WX39-15F7:TSMC_N2WX39-15F7_2_6:2:6:1:yellow:4:1:Torino:0:0:0:none:Torino:4.015557e-06:10:1.19865:23:1.198545:22:0.898918:8:0:2.044E-04:3.031E-02:2.058E-04:2.992E-02:0:0:0:0:0:5E26:Probed at Torino, Iref = 4.015557e-06 with trim bits 10:No loaded to any board yet
TSMC_N2WX39-15F7:TSMC_N2WX39-15F7_6_5:6:5:1:yellow:4:1:Torino:0:0:0:none:Torino:3.995044e-06:9:1.194274:23:1.196074:18:0.900277:9:0:1.205E-08:9.451E-02:4.800E-09:1.357E-01:0:0:0:0:0:5E65:Probed at Torino, Iref = 3.995044e-06 with trim bits 9:No loaded to any board yet
TSMC_N2WX39-15F7:TSMC_N2WX39-15F7_4_6:4:6:1:yellow:4:1:Torino:0:0:0:none:Torino:4.04784e-06:7:1.197006:23:1.200568:16:0.8998882:8:0:-1.180E-09:9.528E-02:-1.217E-08:1.366E-01:0:0:0:0:0:5E46:Probed at Torino, Iref = 4.04784e-06 with trim bits 7:No loaded to any board yet
TSMC_N2WX39-15F7:TSMC_N2WX39-15F7_3_5:3:5:1:yellow:4:1:Torino:0:0:0:none:Torino:3.962301e-06:9:1.200314:24:1.192521:19:0.9000303:6:0:9.000E-09:1.000E-01:-7.867E-09:1.405E-01:0:0:0:0:0:5E35:Probed at Torino, Iref = 3.962301e-06 with trim bits 9:No loaded to any board yet
TSMC_N2WX39-15F7:TSMC_N2WX39-15F7_3_4:3:4:10:red:4:10:Torino:0:0:0:none:Torino:4.02889e-06:8:1.170852:9:1.165047:29:0.8960097:24:0:1.617E-09:8.603E-02:-2.500E-09:1.281E-01:0:0:0:0:0:5E34:Probed at Torino, Iref = 4.02889e-06 with trim bits 8:No loaded to any board yet
TSMC_N2WX39-15F7:TSMC_N2WX39-15F7_5_5:5:5:10:red:4:10:Torino:0:0:0:none:Torino:0:0:0:0:0:0:0:0:0:0.000E+00:0.000E+00:0.000E+00:0.000E+00:0:0:0:0:0:5E55:Probed at Torino, Iref = 0 with trim bits 0:No loaded to any board yet
TSMC_N2WX39-15F7:TSMC_N2WX39-15F7_7_4:7:4:1:yellow:4:1:Torino:0:0:0:none:Torino:3.965066e-06:9:1.192234:23:1.196686:23:0.898965:10:0:2.024E-04:3.796E-02:2.039E-04:3.758E-02:0:0:0:0:0:5E74:Probed at Torino, Iref = 3.965066e-06 with trim bits 9:No loaded to any board yet
TSMC_N2WX39-15F7:TSMC_N2WX39-15F7_7_2:7:2:1:yellow:4:1:Torino:0:0:0:none:Torino:4.028387e-06:7:1.19621:20:1.196625:24:0.8957644:7:0:2.057E-04:2.347E-02:2.071E-04:2.309E-02:0:0:0:0:0:5E72:Probed at Torino, Iref = 4.028387e-06 with trim bits 7:No loaded to any board yet
TSMC_N2WX39-15F7:TSMC_N2WX39-15F7_8_5:8:5:2:green:4:2:Torino:0:0:0:none:Torino:3.982983e-06:7:1.187624:23:1.200336:21:0.9022068:8:0:2.107E-09:9.327E-02:-3.767E-09:1.346E-01:0:0:0:0:0:5E85:Probed at Torino, Iref = 3.982983e-06 with trim bits 7:No loaded to any board yet
TSMC_N2WX39-15F7:TSMC_N2WX39-15F7_9_4:9:4:1:yellow:4:1:Torino:0:0:0:none:Torino:3.989247e-06:7:1.202876:22:1.199985:24:0.8936406:7:0:1.333E-08:9.347E-02:-9.000E-09:1.345E-01:0:0:0:0:0:5E94:Probed at Torino, Iref = 3.989247e-06 with trim bits 7:No loaded to any board yet
TSMC_N2WX39-15F7:TSMC_N2WX39-15F7_4_5:4:5:1:yellow:4:1:Torino:0:0:0:none:Torino:3.950174e-06:6:1.197998:21:1.190089:23:0.901443:9:0:2.453E-09:9.317E-02:0.000E+00:1.345E-01:0:0:0:0:0:5E45:Probed at Torino, Iref = 3.950174e-06 with trim bits 6:No loaded to any board yet
TSMC_N2WX39-15F7:TSMC_N2WX39-15F7_2_4:2:4:2:green:4:2:Torino:0:0:0:none:Torino:4.054701e-06:9:1.199428:22:1.20586:18:0.8984889:8:0:1.055E-08:8.959E-02:-9.433E-09:1.313E-01:0:0:0:0:0:5E24:Probed at Torino, Iref = 4.054701e-06 with trim bits 9:No loaded to any board yet
TSMC_N2WX39-15F7:TSMC_N2WX39-15F7_5_4:5:4:2:green:4:2:Torino:0:0:0:none:Torino:3.943047e-06:7:1.194465:21:1.197917:19:0.8978274:11:0:1.383E-09:8.531E-02:7.733E-09:1.275E-01:0:0:0:0:0:5E54:Probed at Torino, Iref = 3.943047e-06 with trim bits 7:No loaded to any board yet
TSMC_N2WX39-15F7:TSMC_N2WX39-15F7_6_4:6:4:10:red:4:10:Torino:0:0:0:none:Torino:4.006206e-06:7:1.193139:27:1.197511:16:0.7328491:30:0:-3.488E-06:1.897E-01:-8.633E-09:1.780E-01:0:0:0:0:0:5E64:Probed at Torino, Iref = 4.006206e-06 with trim bits 7:No loaded to any board yet
TSMC_N2WX39-15F7:TSMC_N2WX39-15F7_8_4:8:4:1:yellow:4:1:Torino:0:0:0:none:Torino:3.999039e-06:7:1.193872:21:1.202808:19:0.9063463:8:0:-3.907E-09:9.534E-02:-1.360E-08:1.368E-01:0:0:0:0:0:5E84:Probed at Torino, Iref = 3.999039e-06 with trim bits 7:No loaded to any board yet
TSMC_N2WX39-15F7:TSMC_N2WX39-15F7_2_5:2:5:1:yellow:4:1:Torino:0:0:0:none:Torino:4.007676e-06:7:1.196612:21:1.202618:19:0.894549:7:0:6.607E-09:8.511E-02:-7.367E-09:1.273E-01:0:0:0:0:0:5E25:Probed at Torino, Iref = 4.007676e-06 with trim bits 7:No loaded to any board yet
TSMC_N2WX39-15F7:TSMC_N2WX39-15F7_10_5:10:5:10:red:4:10:Torino:0:0:0:none:Torino:0:0:0:0:0:0:0:0:0:0.000E+00:0.000E+00:0.000E+00:0.000E+00:0:0:0:0:0:5EA5:Probed at Torino, Iref = 0 with trim bits 0:No loaded to any board yet
TSMC_N2WX39-15F7:TSMC_N2WX39-15F7_6_3:6:3:10:red:4:10:Torino:0:0:0:none:Torino:4.0201e-06:8:1.193853:19:1.207476:24:0.8995205:12:0:8.310E-09:8.036E-02:-1.100E-09:1.231E-01:0:0:0:0:0:5E63:Probed at Torino, Iref = 4.0201e-06 with trim bits 8:No loaded to any board yet
TSMC_N2WX39-15F7:TSMC_N2WX39-15F7_4_3:4:3:1:yellow:4:1:Torino:0:0:0:none:Torino:4.051436e-06:6:1.200609:22:1.199206:22:0.8999819:9:0:3.263E-09:9.372E-02:-6.000E-09:1.351E-01:0:0:0:0:0:5E43:Probed at Torino, Iref = 4.051436e-06 with trim bits 6:No loaded to any board yet
TSMC_N2WX39-15F7:TSMC_N2WX39-15F7_4_4:4:4:1:yellow:4:1:Torino:0:0:0:none:Torino:4.020005e-06:9:1.203862:23:1.198637:18:0.8933736:7:0:6.320E-09:9.125E-02:-8.500E-09:1.327E-01:0:0:0:0:0:5E44:Probed at Torino, Iref = 4.020005e-06 with trim bits 9:No loaded to any board yet
TSMC_N2WX39-15F7:TSMC_N2WX39-15F7_7_3:7:3:2:green:4:2:Torino:0:0:0:none:Torino:4.01688e-06:6:1.209605:28:1.197832:17:0.902042:8:0:-4.230E-09:8.830E-02:-3.667E-10:1.303E-01:0:0:0:0:0:5E73:Probed at Torino, Iref = 4.01688e-06 with trim bits 6:No loaded to any board yet
TSMC_N2WX39-15F7:TSMC_N2WX39-15F7_2_3:2:3:10:red:4:10:Torino:0:0:0:none:Torino:0:0:0:0:0:0:0:0:0:0.000E+00:0.000E+00:0.000E+00:0.000E+00:0:0:0:0:0:5E23:Probed at Torino, Iref = 0 with trim bits 0:No loaded to any board yet
TSMC_N2WX39-15F7:TSMC_N2WX39-15F7_8_3:8:3:1:yellow:4:1:Torino:0:0:0:none:Torino:3.979633e-06:8:1.2039:23:1.20942:28:0.9025466:10:0:5.493E-09:8.227E-02:7.767E-09:1.251E-01:0:0:0:0:0:5E83:Probed at Torino, Iref = 3.979633e-06 with trim bits 8:No loaded to any board yet
TSMC_N2WX39-15F7:TSMC_N2WX39-15F7_8_2:8:2:1:yellow:4:1:Torino:0:0:0:none:Torino:4.012931e-06:9:1.196214:19:1.197196:18:0.8984905:9:0:1.324E-08:8.690E-02:4.533E-09:1.290E-01:0:0:0:0:0:5E82:Probed at Torino, Iref = 4.012931e-06 with trim bits 9:No loaded to any board yet
TSMC_N2WX39-15F7:TSMC_N2WX39-15F7_5_3:5:3:1:yellow:4:1:Torino:0:0:0:none:Torino:3.964614e-06:8:1.192034:19:1.192878:19:0.9043226:8:0:9.967E-10:8.679E-02:4.367E-09:1.293E-01:0:0:0:0:0:5E53:Probed at Torino, Iref = 3.964614e-06 with trim bits 8:No loaded to any board yet
TSMC_N2WX39-15F7:TSMC_N2WX39-15F7_3_3:3:3:1:yellow:4:1:Torino:0:0:0:none:Torino:3.988896e-06:7:1.202251:19:1.205433:22:0.9009904:10:0:2.170E-09:8.537E-02:1.267E-08:1.276E-01:0:0:0:0:0:5E33:Probed at Torino, Iref = 3.988896e-06 with trim bits 7:No loaded to any board yet
TSMC_N2WX39-15F7:TSMC_N2WX39-15F7_9_3:9:3:2:green:4:2:Torino:0:0:0:none:Torino:4.038443e-06:8:1.209291:24:1.203135:21:0.8990938:8:0:3.817E-09:8.366E-02:-5.567E-09:1.263E-01:0:0:0:0:0:5E93:Probed at Torino, Iref = 4.038443e-06 with trim bits 8:No loaded to any board yet
TSMC_N2WX39-15F7:TSMC_N2WX39-15F7_5_2:5:2:2:green:4:2:Torino:0:0:0:none:Torino:4.024669e-06:10:1.192673:27:1.190639:23:0.8985603:9:0:2.059E-04:2.575E-02:2.073E-04:2.536E-02:0:0:0:0:0:5E52:Probed at Torino, Iref = 4.024669e-06 with trim bits 10:No loaded to any board yet
TSMC_N2WX39-15F7:TSMC_N2WX39-15F7_6_1:6:1:1:yellow:4:1:Torino:0:0:0:none:Torino:3.97799e-06:5:1.203641:22:1.205995:16:0.8991827:10:0:6.110E-09:9.641E-02:4.000E-09:1.374E-01:0:0:0:0:0:5E61:Probed at Torino, Iref = 3.97799e-06 with trim bits 5:No loaded to any board yet
TSMC_N2WX39-15F7:TSMC_N2WX39-15F7_4_2:4:2:1:yellow:4:1:Torino:0:0:0:none:Torino:3.994488e-06:8:1.196006:25:1.208422:24:0.8938378:7:0:2.833E-09:8.699E-02:2.767E-09:1.288E-01:0:0:0:0:0:5E42:Probed at Torino, Iref = 3.994488e-06 with trim bits 8:No loaded to any board yet
TSMC_N2WX39-15F7:TSMC_N2WX39-15F7_6_2:6:2:10:red:4:10:Torino:0:0:0:none:Torino:3.981983e-06:5:1.196018:17:1.197839:18:0.9306434:0:0:-1.185E-06:1.584E-01:9.833E-09:1.834E-01:0:0:0:0:0:5E62:Probed at Torino, Iref = 3.981983e-06 with trim bits 5:No loaded to any board yet
TSMC_N2WX39-15F7:TSMC_N2WX39-15F7_6_6:6:6:2:green:4:2:Torino:0:0:0:none:Torino:3.935515e-06:7:1.191768:25:1.196619:17:0.8999689:11:0:-1.133E-10:7.591E-02:4.867E-09:1.191E-01:0:0:0:0:0:5E66:Probed at Torino, Iref = 3.935515e-06 with trim bits 7:No loaded to any board yet
TSMC_N2WX39-15F7:TSMC_N2WX39-15F7_5_1:5:1:1:yellow:4:1:Torino:0:0:0:none:Torino:3.949999e-06:9:1.20595:28:1.201233:23:0.8986273:10:0:-1.930E-09:9.153E-02:-5.300E-09:1.331E-01:0:0:0:0:0:5E51:Probed at Torino, Iref = 3.949999e-06 with trim bits 9:No loaded to any board yet
TSMC_N2WX39-15F7:TSMC_N2WX39-15F7_7_8:7:8:1:yellow:4:1:Torino:0:0:0:none:Torino:4.057901e-06:8:1.201677:25:1.193812:17:0.9017783:5:0:7.667E-09:1.108E-01:-1.570E-08:1.497E-01:0:0:0:0:0:5E78:Probed at Torino, Iref = 4.057901e-06 with trim bits 8:No loaded to any board yet
